onehot_sender/dump.vcd
$date
	Sat Mar 16 23:44:21 2019
$end
$version
	Icarus Verilog
$end
$timescale
	1ns
$end
$scope module main $end
$scope module uFifo $end
$var reg 8 ! \mem[0] [7:0] $end
$upscope $end
$upscope $end
$scope module main $end
$scope module uFifo $end
$var reg 8 " \mem[1] [7:0] $end
$upscope $end
$upscope $end
$scope module main $end
$scope module uFifo $end
$var reg 8 # \mem[2] [7:0] $end
$upscope $end
$upscope $end
$scope module main $end
$scope module uFifo $end
$var reg 8 $ \mem[3] [7:0] $end
$upscope $end
$upscope $end
$scope module main $end
$scope module uFifo $end
$var reg 8 % \mem[4] [7:0] $end
$upscope $end
$upscope $end
$scope module main $end
$scope module uFifo $end
$var reg 8 & \mem[5] [7:0] $end
$upscope $end
$upscope $end
$scope module main $end
$scope module uFifo $end
$var reg 8 ' \mem[6] [7:0] $end
$upscope $end
$upscope $end
$scope module main $end
$scope module uFifo $end
$var reg 8 ( \mem[7] [7:0] $end
$upscope $end
$upscope $end
$scope module main $end
$var reg 1 ) clk $end
$var reg 32 * data [31:0] $end
$var integer 32 + idx [31:0] $end
$var reg 1 , rst $end
$var reg 1 - valid $end
$scope module uFifo $end
$var wire 1 . clk $end
$var wire 32 / i_snk_data [31:0] $end
$var wire 1 0 i_snk_valid $end
$var wire 1 1 i_src_ready $end
$var wire 1 2 o_snk_ready $end
$var wire 32 3 o_src_data [31:0] $end
$var wire 1 4 o_src_valid $end
$var wire 1 5 rst $end
$var wire 1 6 w_empty $end
$var wire 1 7 w_full $end
$var integer 32 8 idx [31:0] $end
$var reg 3 9 r_ptr [2:0] $end
$var reg 3 : w_ptr [2:0] $end
$upscope $end
$upscope $end
$enddefinitions $end
#0
$dumpvars
bx :
bx 9
b1000 8
x7
x6
15
x4
b0xxxxxxxx 3
x2
11
00
b0 /
0.
0-
1,
b1000 +
b0 *
0)
bx (
bx '
bx &
bx %
bx $
bx #
bx "
bx !
$end
#500
12
07
04
16
b0 :
b0 9
b1 *
b1 /
1)
1.
#1000
0)
0.
#1500
1-
10
b10 *
b10 /
1)
1.
#2000
0)
0.
#2500
b11 !
b11 3
b11 *
b11 /
1)
1.
#3000
0)
0.
#3500
b11 !
b100 *
b100 /
1)
1.
#4000
0)
0.
0,
05
#4500
14
06
b1 :
b101 !
b101 3
b101 *
b101 /
1)
1.
#5000
0)
0.
#5500
b101 "
b1 9
b101 3
b10 :
b110 *
b110 /
1)
1.
#6000
0)
0.
#6500
b11 :
b10 9
b111 3
b111 #
b111 *
b111 /
1)
1.
#7000
0)
0.
#7500
0-
00
b111 $
b11 9
b111 3
b100 :
b1000 *
b1000 /
1)
1.
#8000
0)
0.
#8500
04
16
b100 9
b0xxxxxxxx 3
1-
10
b1001 *
b1001 /
1)
1.
#9000
0)
0.
#9500
14
06
b1001 %
b1001 3
b101 :
b1010 *
b1010 /
1)
1.
#10000
0)
0.
#10500
b110 :
b101 9
b1011 3
b1011 &
0-
00
b1011 *
b1011 /
1)
1.
#11000
0)
0.
#11500
04
16
1-
10
b110 9
b0xxxxxxxx 3
b1100 *
b1100 /
1)
1.
#12000
0)
0.
#12500
14
06
b111 :
b1101 '
b1101 3
b1101 *
b1101 /
1)
1.
#13000
0)
0.
#13500
0-
00
b1101 (
b111 9
b1101 3
b0 :
b1110 *
b1110 /
1)
1.
#14000
0)
0.
#14500
04
16
b0 9
b101 3
1-
10
b1111 *
b1111 /
1)
1.
#15000
0)
0.
#15500
14
06
0-
00
b1111 !
b1111 3
b1 :
b10000 *
b10000 /
1)
1.
#16000
0)
0.
#16500
04
16
b1 9
b101 3
1-
10
b10001 *
b10001 /
1)
1.
#17000
0)
0.
#17500
14
06
0-
00
b10001 "
b10001 3
b10 :
b10010 *
b10010 /
1)
1.
#18000
0)
0.
#18500
04
16
b10 9
b111 3
1-
10
b10011 *
b10011 /
1)
1.
#19000
0)
0.
#19500
14
06
b10011 #
b10011 3
b11 :
b10100 *
b10100 /
1)
1.
#20000
0)
0.
#20500
b100 :
b11 9
b10101 3
b10101 $
0-
00
b10101 *
b10101 /
1)
1.
#21000
0)
0.
#21500
04
16
1-
10
b100 9
b1001 3
b10110 *
b10110 /
1)
1.
#22000
0)
0.
#22500
14
06
b101 :
b10111 %
b10111 3
0-
00
b10111 *
b10111 /
1)
1.
#23000
0)
0.
#23500
04
16
b101 9
b1011 3
b11000 *
b11000 /
1)
1.
#24000
0)
0.
#24500
b11001 *
b11001 /
1)
1.
#25000
0)
0.
#25500
1-
10
b11010 *
b11010 /
1)
1.
#26000
0)
0.
#26500
14
06
b110 :
b11011 &
b11011 3
0-
00
b11011 *
b11011 /
1)
1.
#27000
0)
0.
#27500
04
16
1-
10
b110 9
b1101 3
b11100 *
b11100 /
1)
1.
#28000
0)
0.
#28500
14
06
b111 :
b11101 '
b11101 3
b11101 *
b11101 /
1)
1.
#29000
0)
0.
#29500
b11101 (
b111 9
b11101 3
b0 :
b11110 *
b11110 /
1)
1.
#30000
0)
0.
#30500
b1 :
b0 9
b11111 3
b11111 !
b11111 *
b11111 /
1)
1.
#31000
0)
0.
#31500
0-
00
b11111 "
b1 9
b11111 3
b10 :
b100000 *
b100000 /
1)
1.
#32000
0)
0.
#32500
04
16
b10 9
b10011 3
b100001 *
b100001 /
1)
1.
#33000
0)
0.
#33500
b100010 *
b100010 /
1)
1.
#34000
0)
0.
#34500
b100011 *
b100011 /
1)
1.
#35000
0)
0.
#35500
1-
10
b100100 *
b100100 /
1)
1.
#36000
0)
0.
#36500
14
06
b11 :
b100101 #
b100101 3
0-
00
b100101 *
b100101 /
1)
1.
#37000
0)
0.
#37500
04
16
1-
10
b11 9
b10101 3
b100110 *
b100110 /
1)
1.
#38000
0)
0.
#38500
14
06
b100 :
b100111 $
b100111 3
b100111 *
b100111 /
1)
1.
#39000
0)
0.
#39500
b100111 %
b100 9
b100111 3
b101 :
b101000 *
b101000 /
1)
1.
#40000
0)
0.
#40500
b110 :
b101 9
b101001 3
b101001 &
b101001 *
b101001 /
1)
1.
#41000
0)
0.
#41500
b101001 '
b110 9
b101001 3
b111 :
b101010 *
b101010 /
1)
1.
#42000
0)
0.
#42500
b0 :
b111 9
b101011 3
b101011 (
0-
00
b101011 *
b101011 /
1)
1.
#43000
0)
0.
#43500
04
16
b0 9
b11111 3
b101100 *
b101100 /
1)
1.
#44000
0)
0.
#44500
1-
10
b101101 *
b101101 /
1)
1.
#45000
0)
0.
#45500
14
06
b101101 !
b101101 3
b1 :
b101110 *
b101110 /
1)
1.
#46000
0)
0.
#46500
b10 :
b1 9
b101111 3
b101111 "
b101111 *
b101111 /
1)
1.
#47000
0)
0.
#47500
0-
00
b101111 #
b10 9
b101111 3
b11 :
b110000 *
b110000 /
1)
1.
#48000
0)
0.
#48500
04
16
b11 9
b100111 3
b110001 *
b110001 /
1)
1.
#49000
0)
0.
#49500
b110010 *
b110010 /
1)
1.
#50000
0)
0.
#50500
b110011 *
b110011 /
1)
1.
#51000
0)
0.
#51500
b110100 *
b110100 /
1)
1.
#52000
0)
0.
#52500
1-
10
b110101 *
b110101 /
1)
1.
#53000
0)
0.
#53500
14
06
0-
00
b110101 $
b110101 3
b100 :
b110110 *
b110110 /
1)
1.
#54000
0)
0.
#54500
04
16
b100 9
b100111 3
b110111 *
b110111 /
1)
1.
#55000
0)
0.
#55500
1-
10
b111000 *
b111000 /
1)
1.
#56000
0)
0.
#56500
14
06
b101 :
b111001 %
b111001 3
b111001 *
b111001 /
1)
1.
#57000
0)
0.
#57500
0-
00
b111001 &
b101 9
b111001 3
b110 :
b111010 *
b111010 /
1)
1.
#58000
0)
0.
#58500
04
16
b110 9
b101001 3
b111011 *
b111011 /
1)
1.
#59000
0)
0.
#59500
b111100 *
b111100 /
1)
1.
#60000
0)
0.
#60500
b111101 *
b111101 /
1)
1.
#61000
0)
0.
#61500
b111110 *
b111110 /
1)
1.
#62000
0)
0.
#62500
1-
10
b111111 *
b111111 /
1)
1.
#63000
0)
0.
#63500
14
06
b111111 '
b111111 3
b111 :
b1000000 *
b1000000 /
1)
1.
#64000
0)
0.
#64500
b0 :
b111 9
b1000001 3
b1000001 (
b1000001 *
b1000001 /
1)
1.
#65000
0)
0.
#65500
b1000001 !
b0 9
b1000001 3
b1 :
b1000010 *
b1000010 /
1)
1.
#66000
0)
0.
#66500
b10 :
b1 9
b1000011 3
b1000011 "
b1000011 *
b1000011 /
1)
1.
#67000
0)
0.
#67500
0-
00
b1000011 #
b10 9
b1000011 3
b11 :
b1000100 *
b1000100 /
1)
1.
#68000
0)
0.
#68500
04
16
b11 9
b110101 3
b1000101 *
b1000101 /
1)
1.
#69000
0)
0.
#69500
1-
10
b1000110 *
b1000110 /
1)
1.
#70000
0)
0.
#70500
14
06
b100 :
b1000111 $
b1000111 3
b1000111 *
b1000111 /
1)
1.
#71000
0)
0.
#71500
b1000111 %
b100 9
b1000111 3
b101 :
b1001000 *
b1001000 /
1)
1.
#72000
0)
0.
#72500
b110 :
b101 9
b1001001 3
b1001001 &
0-
00
b1001001 *
b1001001 /
1)
1.
#73000
0)
0.
#73500
04
16
b110 9
b111111 3
b1001010 *
b1001010 /
1)
1.
#74000
0)
0.
#74500
1-
10
b1001011 *
b1001011 /
1)
1.
#75000
0)
0.
#75500
14
06
b1001011 '
b1001011 3
b111 :
b1001100 *
b1001100 /
1)
1.
#76000
0)
0.
#76500
b0 :
b111 9
b1001101 3
b1001101 (
0-
00
b1001101 *
b1001101 /
1)
1.
#77000
0)
0.
#77500
04
16
1-
10
b0 9
b1000001 3
b1001110 *
b1001110 /
1)
1.
#78000
0)
0.
#78500
14
06
b1 :
b1001111 !
b1001111 3
b1001111 *
b1001111 /
1)
1.
#79000
0)
0.
#79500
0-
00
b1001111 "
b1 9
b1001111 3
b10 :
b1010000 *
b1010000 /
1)
1.
#80000
0)
0.
#80500
04
16
b10 9
b1000011 3
1-
10
b1010001 *
b1010001 /
1)
1.
#81000
0)
0.
#81500
14
06
b1010001 #
b1010001 3
b11 :
b1010010 *
b1010010 /
1)
1.
#82000
0)
0.
#82500
b100 :
b11 9
b1010011 3
b1010011 $
b1010011 *
b1010011 /
1)
1.
#83000
0)
0.
#83500
0-
00
b1010011 %
b100 9
b1010011 3
b101 :
b1010100 *
b1010100 /
1)
1.
#84000
0)
0.
#84500
04
16
b101 9
b1001001 3
1-
10
b1010101 *
b1010101 /
1)
1.
#85000
0)
0.
#85500
14
06
b1010101 &
b1010101 3
b110 :
b1010110 *
b1010110 /
1)
1.
#86000
0)
0.
#86500
b111 :
b110 9
b1010111 3
b1010111 '
0-
00
b1010111 *
b1010111 /
1)
1.
#87000
0)
0.
#87500
04
16
b111 9
b1001101 3
b1011000 *
b1011000 /
1)
1.
#88000
0)
0.
#88500
b1011001 *
b1011001 /
1)
1.
#89000
0)
0.
#89500
b1011010 *
b1011010 /
1)
1.
#90000
0)
0.
#90500
1-
10
b1011011 *
b1011011 /
1)
1.
#91000
0)
0.
#91500
14
06
b1011011 (
b1011011 3
b0 :
b1011100 *
b1011100 /
1)
1.
#92000
0)
0.
#92500
b1 :
b0 9
b1011101 3
b1011101 !
0-
00
b1011101 *
b1011101 /
1)
1.
#93000
0)
0.
#93500
04
16
b1 9
b1001111 3
b1011110 *
b1011110 /
1)
1.
#94000
0)
0.
#94500
1-
10
b1011111 *
b1011111 /
1)
1.
#95000
0)
0.
#95500
14
06
b1011111 "
b1011111 3
b10 :
b1100000 *
b1100000 /
1)
1.
#96000
0)
0.
#96500
b11 :
b10 9
b1100001 3
b1100001 #
b1100001 *
b1100001 /
1)
1.
#97000
0)
0.
#97500
b1100001 $
b11 9
b1100001 3
b100 :
b1100010 *
b1100010 /
1)
1.
#98000
0)
0.
#98500
b101 :
b100 9
b1100011 3
b1100011 %
b1100011 *
b1100011 /
1)
1.
#99000
0)
0.
#99500
0-
00
b1100011 &
b101 9
b1100011 3
b110 :
b1100100 *
b1100100 /
1)
1.
