cpu_top/main.vcd
$date
	Thu May  2 18:33:01 2019
$end
$version
	Icarus Verilog
$end
$timescale
	1ps
$end
$scope module main $end
$var reg 1 ! clk $end
$var reg 32 " counter [31:0] $end
$var reg 32 # r_data_readdadavalid [31:0] $end
$var reg 32 $ r_data_readdata [31:0] $end
$var reg 32 % r_data_waitrequest [31:0] $end
$var reg 32 & r_inst_readdata [31:0] $end
$var reg 32 ' r_inst_readdatavalid [31:0] $end
$var reg 32 ( r_inst_waitrequest [31:0] $end
$var reg 32 ) r_status_addr [31:0] $end
$var reg 32 * r_status_read [31:0] $end
$var reg 32 + r_status_write [31:0] $end
$var reg 32 , r_status_writedata [31:0] $end
$var reg 1 - rst $end
$scope module uCpu_top $end
$var wire 1 . clk $end
$var wire 32 / i_data_readdata [31:0] $end
$var wire 1 0 i_data_readdatavalid $end
$var wire 1 1 i_data_waitrequest $end
$var wire 32 2 i_inst_readdata [31:0] $end
$var wire 1 3 i_inst_readdatavalid $end
$var wire 1 4 i_inst_waitrequest $end
$var wire 2 5 i_status_addr [1:0] $end
$var wire 1 6 i_status_read $end
$var wire 1 7 i_status_write $end
$var wire 32 8 i_status_writedata [31:0] $end
$var wire 18 9 o_data_addr [17:0] $end
$var wire 1 : o_data_read $end
$var wire 1 ; o_data_write $end
$var wire 32 < o_data_writedata [31:0] $end
$var wire 18 = o_inst_addr [17:0] $end
$var wire 32 > o_inst_burstcount [31:0] $end
$var wire 1 ? o_inst_read $end
$var wire 32 @ o_status_readdata [31:0] $end
$var wire 1 A o_status_readdatavalid $end
$var wire 1 B rst $end
$var wire 32 C w_alu_result_val [31:0] $end
$var wire 32 D w_alu_result_valid [31:0] $end
$var wire 32 E w_arb3_data [31:0] $end
$var wire 1 F w_arb3_valid $end
$var wire 1 G w_cpu_ctrl_be_bne $end
$var wire 1 H w_cpu_ctrl_calc_start $end
$var wire 1 I w_cpu_ctrl_inst_complete $end
$var wire 5 J w_decoder_dst [4:0] $end
$var wire 32 K w_decoder_j_addr [31:0] $end
$var wire 1 L w_decoder_j_addr_valid $end
$var wire 32 M w_decoder_jal_addr [31:0] $end
$var wire 1 N w_decoder_jal_addr_valid $end
$var wire 1 O w_decoder_jr_addr_valid $end
$var wire 16 P w_decoder_minor_imm [15:0] $end
$var wire 4 Q w_decoder_op [3:0] $end
$var wire 1 R w_decoder_read_req $end
$var wire 5 S w_decoder_src0 [4:0] $end
$var wire 5 T w_decoder_src1 [4:0] $end
$var wire 2 U w_decoder_type [1:0] $end
$var wire 1 V w_decoder_write_req $end
$var wire 32 W w_fifo_inst [31:0] $end
$var wire 1 X w_fifo_inst_valid $end
$var wire 1 Y w_inst_fetch_ctrl_empty $end
$var wire 1 Z w_inst_fetch_ctrl_fetch_complete $end
$var wire 32 [ w_inst_fetch_ctrl_inst [31:0] $end
$var wire 1 \ w_inst_fetch_ctrl_inst_valid $end
$var wire 32 ] w_inst_fetch_ctrl_ret_addr [31:0] $end
$var wire 1 ^ w_inst_fetch_ctrl_ret_addr_valid $end
$var wire 1 _ w_inst_fetch_ctrl_rst_fifo $end
$var wire 32 ` w_minor_imm_plus_reg_src0 [31:0] $end
$var wire 1 a w_minor_imm_plus_src0 $end
$var wire 1 b w_mm_to_st_read_mem_complete $end
$var wire 32 c w_mm_to_st_readdata [31:0] $end
$var wire 1 d w_mm_to_st_readdata_valid $end
$var wire 1 e w_mm_to_st_write_mem_complete $end
$var wire 32 f w_mux_oOut [31:0] $end
$var wire 32 g w_reg_src0 [31:0] $end
$var wire 32 h w_reg_src1 [31:0] $end
$var wire 1 i w_type_is_i $end
$scope module uAlu $end
$var wire 1 . clk $end
$var wire 1 H i_calc_start $end
$var wire 4 j i_op [3:0] $end
$var wire 32 k i_operand_0_val [31:0] $end
$var wire 32 l i_operand_1_val [31:0] $end
$var wire 2 m i_type [1:0] $end
$var wire 32 n o_result_val [31:0] $end
$var wire 1 o o_result_valid $end
$var wire 1 B rst $end
$var wire 32 p w_idev_operand_0_med [31:0] $end
$var wire 32 q w_idev_operand_1_med [31:0] $end
$var wire 32 r w_idev_result_med [31:0] $end
$var wire 1 s w_operand_0_minus $end
$var wire 1 t w_operand_1_minus $end
$var wire 32 u w_result_val [31:0] $end
$var reg 32 v r_result_val [31:0] $end
$var reg 1 w r_result_valid $end
$upscope $end
$scope module uMux $end
$var wire 32 x iIn0 [31:0] $end
$var wire 32 y iIn1 [31:0] $end
$var wire 32 z oOut [31:0] $end
$var wire 1 i sel $end
$upscope $end
$scope module uRegister $end
$var wire 1 . clk $end
$var wire 5 { iDstAddr [4:0] $end
$var wire 32 | iDstVal [31:0] $end
$var wire 1 F iDstValid $end
$var wire 5 } iSrc0Addr [4:0] $end
$var wire 5 ~ iSrc1Addr [4:0] $end
$var wire 32 !" oSrc0Val [31:0] $end
$var wire 32 "" oSrc1Val [31:0] $end
$var wire 1 B rst $end
$upscope $end
$scope module uArb3 $end
$var wire 1 . clk $end
$var wire 32 #" iSnk0Data [31:0] $end
$var wire 1 $" iSnk0Valid $end
$var wire 32 %" iSnk1Data [31:0] $end
$var wire 1 d iSnk1Valid $end
$var wire 32 &" iSnk2Data [31:0] $end
$var wire 1 ^ iSnk2Valid $end
$var wire 32 '" oSrc0Data [31:0] $end
$var wire 1 F oSrc0Valid $end
$var wire 1 B rst $end
$upscope $end
$scope module uDecoder $end
$var wire 1 . clk $end
$var wire 32 (" i_inst [31:0] $end
$var wire 1 X i_inst_valid $end
$var wire 5 )" o_dst [4:0] $end
$var wire 32 *" o_j_addr [31:0] $end
$var wire 1 L o_j_addr_valid $end
$var wire 32 +" o_jal_addr [31:0] $end
$var wire 1 N o_jal_addr_valid $end
$var wire 1 O o_jr $end
$var wire 16 ," o_minor_imm [15:0] $end
$var wire 4 -" o_op [3:0] $end
$var wire 1 R o_read_req $end
$var wire 5 ." o_src0 [4:0] $end
$var wire 5 /" o_src1 [4:0] $end
$var wire 2 0" o_type [1:0] $end
$var wire 1 V o_write_req $end
$var wire 1 B rst $end
$var wire 26 1" w_major_imm [25:0] $end
$var wire 5 2" w_src1 [4:0] $end
$upscope $end
$scope module uCpu_ctrl $end
$var wire 1 . clk $end
$var wire 2 3" i_addr [1:0] $end
$var wire 1 4" i_calc_complete $end
$var wire 1 Y i_empty $end
$var wire 1 Z i_fetch_complete $end
$var wire 32 5" i_inst [31:0] $end
$var wire 1 X i_inst_valid $end
$var wire 1 6 i_read $end
$var wire 1 b i_read_mem_complete $end
$var wire 32 6" i_src0 [31:0] $end
$var wire 32 7" i_src1 [31:0] $end
$var wire 1 7 i_write $end
$var wire 1 e i_write_mem_complete $end
$var wire 32 8" i_writedata [31:0] $end
$var wire 1 G o_be_bne $end
$var wire 1 H o_calc_start $end
$var wire 1 I o_inst_complete $end
$var wire 32 9" o_readdata [31:0] $end
$var wire 1 A o_readdatavalid $end
$var wire 1 B rst $end
$var wire 1 :" w_be $end
$var wire 1 ;" w_bne $end
$var wire 1 <" w_calc $end
$var wire 1 =" w_calc_to_waitToCalc $end
$var wire 1 >" w_fetch_to_waitToFetch $end
$var wire 1 ?" w_jump $end
$var wire 1 @" w_lwst $end
$var wire 4 A" w_op [3:0] $end
$var wire 1 B" w_ready_to_fetch $end
$var wire 2 C" w_type [1:0] $end
$var wire 1 D" w_waitToCalc_to_calc $end
$var wire 1 E" w_waitToCalc_to_fetch $end
$var wire 1 F" w_waitToCalc_to_waitToLwst $end
$var wire 1 G" w_waitToFetch_to_calc $end
$var wire 1 H" w_waitToFetch_to_fetch $end
$var wire 1 I" w_waitToFetch_to_waitToLwst $end
$var wire 1 J" w_waitToLwst_to_calc $end
$var wire 1 K" w_waitToLwst_to_fetch $end
$var wire 1 L" w_waitToLwst_to_waitToLwst $end
$var reg 32 M" r_boot [31:0] $end
$var reg 1 N" r_calc_complete_next $end
$var reg 1 O" r_read_mem_complete_next $end
$var reg 32 P" r_readdata [31:0] $end
$var reg 1 Q" r_readdatavalid $end
$var reg 4 R" r_state [3:0] $end
$var reg 1 S" r_write_mem_complete_next $end
$upscope $end
$scope module uInst_fetch_ctrl $end
$var wire 1 . clk $end
$var wire 18 T" i_be_bne_addr [17:0] $end
$var wire 1 G i_be_bne_valid $end
$var wire 1 I i_inst_complete $end
$var wire 18 U" i_j_addr [17:0] $end
$var wire 1 L i_j_valid $end
$var wire 18 V" i_jal_addr [17:0] $end
$var wire 1 N i_jal_valid $end
$var wire 18 W" i_jr_addr [17:0] $end
$var wire 1 O i_jr_valid $end
$var wire 32 X" i_readdata [31:0] $end
$var wire 1 3 i_readdatavalid $end
$var wire 1 4 i_waitrequest $end
$var wire 18 Y" o_addr [17:0] $end
$var wire 32 Z" o_burstcount [31:0] $end
$var wire 1 Z o_fetch_complete $end
$var wire 32 [" o_inst [31:0] $end
$var wire 1 Y o_inst_empty $end
$var wire 1 \ o_inst_valid $end
$var wire 1 ? o_read $end
$var wire 18 \" o_ret_addr [17:0] $end
$var wire 1 ^ o_ret_addr_valid $end
$var wire 1 _ o_rst_inst_fifo $end
$var wire 1 B rst $end
$var wire 1 ]" w_fetch_to_ready $end
$var wire 18 ^" w_readinst_fifo_in_data [17:0] $end
$var wire 1 _" w_readinst_fifo_in_valid $end
$var wire 1 `" w_ready_to_fetch $end
$var wire 1 a" w_state_ready $end
$var reg 18 b" r_inst_counter [17:0] $end
$var reg 18 c" r_program_counter [17:0] $end
$var reg 1 d" r_state $end
$scope module uArb5 $end
$var wire 1 . clk $end
$var wire 18 e" iSnk0Data [17:0] $end
$var wire 1 f" iSnk0Valid $end
$var wire 18 g" iSnk1Data [17:0] $end
$var wire 1 h" iSnk1Valid $end
$var wire 18 i" iSnk2Data [17:0] $end
$var wire 1 j" iSnk2Valid $end
$var wire 18 k" iSnk3Data [17:0] $end
$var wire 1 l" iSnk3Valid $end
$var wire 18 m" iSnk4Data [17:0] $end
$var wire 1 n" iSnk4Valid $end
$var wire 18 o" oSrc0Data [17:0] $end
$var wire 1 _" oSrc0Valid $end
$var wire 1 B rst $end
$upscope $end
$scope module uReadinst $end
$var wire 1 . clk $end
$var wire 18 p" i_snk_data [17:0] $end
$var wire 1 _" i_snk_valid $end
$var wire 1 q" i_src_ready $end
$var wire 1 r" o_snk_ready $end
$var wire 18 s" o_src_data [17:0] $end
$var wire 1 ? o_src_valid $end
$var wire 1 B rst $end
$var wire 1 t" w_empty $end
$var wire 1 u" w_full $end
$var reg 3 v" r_ptr [2:0] $end
$var reg 3 w" w_ptr [2:0] $end
$upscope $end
$scope module uReaddata $end
$var wire 1 . clk $end
$var wire 32 x" i_snk_data [31:0] $end
$var wire 1 3 i_snk_valid $end
$var wire 1 y" i_src_ready $end
$var wire 1 z" o_snk_ready $end
$var wire 32 {" o_src_data [31:0] $end
$var wire 1 \ o_src_valid $end
$var wire 1 B rst $end
$var wire 1 |" w_empty $end
$var wire 1 }" w_full $end
$var reg 3 ~" r_ptr [2:0] $end
$var reg 3 !# w_ptr [2:0] $end
$upscope $end
$upscope $end
$scope module uMM_to_ST_arb $end
$var wire 1 . clk $end
$var wire 18 "# i_addr [17:0] $end
$var wire 1 R i_read_req $end
$var wire 32 ## i_readdata [31:0] $end
$var wire 1 0 i_readdatavalid $end
$var wire 1 1 i_waitrequest $end
$var wire 1 V i_write_req $end
$var wire 32 $# i_writedata [31:0] $end
$var wire 18 %# o_addr [17:0] $end
$var wire 1 : o_read $end
$var wire 1 b o_read_mem_complete $end
$var wire 32 &# o_readdata [31:0] $end
$var wire 1 d o_valid $end
$var wire 1 ; o_write $end
$var wire 1 e o_write_mem_complete $end
$var wire 32 '# o_writedata [31:0] $end
$var wire 1 B rst $end
$var wire 52 (# w_inst_fifo_in [51:0] $end
$var wire 52 )# w_inst_fifo_out [51:0] $end
$var wire 1 *# w_inst_fifo_valid_out $end
$scope module uInstFifo $end
$var wire 1 . clk $end
$var wire 52 +# i_snk_data [51:0] $end
$var wire 1 ,# i_snk_valid $end
$var wire 1 -# i_src_ready $end
$var wire 1 .# o_snk_ready $end
$var wire 52 /# o_src_data [51:0] $end
$var wire 1 *# o_src_valid $end
$var wire 1 B rst $end
$var wire 1 0# w_empty $end
$var wire 1 1# w_full $end
$var reg 3 2# r_ptr [2:0] $end
$var reg 3 3# w_ptr [2:0] $end
$upscope $end
$scope module uReaddata $end
$var wire 1 . clk $end
$var wire 32 4# i_snk_data [31:0] $end
$var wire 1 0 i_snk_valid $end
$var wire 1 5# i_src_ready $end
$var wire 1 6# o_snk_ready $end
$var wire 32 7# o_src_data [31:0] $end
$var wire 1 d o_src_valid $end
$var wire 1 B rst $end
$var wire 1 8# w_empty $end
$var wire 1 9# w_full $end
$var reg 3 :# r_ptr [2:0] $end
$var reg 3 ;# w_ptr [2:0] $end
$upscope $end
$upscope $end
$scope module uFifo $end
$var wire 1 . clk $end
$var wire 32 <# i_snk_data [31:0] $end
$var wire 1 \ i_snk_valid $end
$var wire 1 I i_src_ready $end
$var wire 1 =# o_snk_ready $end
$var wire 32 ># o_src_data [31:0] $end
$var wire 1 X o_src_valid $end
$var wire 1 ?# rst $end
$var wire 1 @# w_empty $end
$var wire 1 A# w_full $end
$var reg 3 B# r_ptr [2:0] $end
$var reg 3 C# w_ptr [2:0] $end
$upscope $end
$upscope $end
$upscope $end
$enddefinitions $end
#0
$dumpvars
b0 C#
b0 B#
0A#
1@#
1?#
bx >#
1=#
bx <#
b0 ;#
b0 :#
09#
18#
bx 7#
16#
15#
bx 4#
b0 3#
b0 2#
01#
10#
bx /#
1.#
x-#
0,#
bxzzzzzzzzzzzzzzzzzz00 +#
0*#
bx )#
bxzzzzzzzzzzzzzzzzzz00 (#
bx '#
bx &#
bx %#
bx $#
bx ##
bz "#
b0 !#
b0 ~"
0}"
1|"
bx {"
1z"
1y"
bx x"
b0 w"
b0 v"
0u"
1t"
bx s"
1r"
xq"
bx p"
bx o"
0n"
bx m"
xl"
bx k"
0j"
bx i"
0h"
bx g"
0f"
bx e"
xd"
bx c"
bx b"
xa"
x`"
x_"
bx ^"
x]"
bx \"
bx ["
b10000 Z"
bx Y"
bx X"
bx W"
bx V"
bx U"
b0xxxxxxxxxxxxxxxx T"
xS"
bx R"
xQ"
bx P"
xO"
xN"
bx M"
0L"
xK"
0J"
0I"
0H"
0G"
0F"
xE"
0D"
bx C"
xB"
bx A"
0@"
0?"
1>"
1="
0<"
0;"
0:"
bx 9"
bx 8"
bx 7"
bx 6"
bx 5"
x4"
bx 3"
bx 2"
bx 1"
bx 0"
bx /"
bx ."
bx -"
bx ,"
b0xxxxxxxxxxxxxxxxxxxxxxxxxx +"
b0xxxxxxxxxxxxxxxxxxxxxxxxxx *"
bx )"
bx ("
bx '"
b0xxxxxxxxxxxxxxxxxx &"
bx %"
x$"
bx #"
bx ""
bx !"
bx ~
bx }
bx |
bx {
bx z
b0xxxxxxxxxxxxxxxx y
bx x
xw
bx v
bx u
xt
xs
bx r
bx q
bx p
xo
bx n
bx m
bx l
bx k
bx j
xi
bx h
bx g
bx f
0e
0d
bx c
0b
xa
bz `
1_
0^
b0xxxxxxxxxxxxxxxxxx ]
0\
bx [
xZ
xY
0X
bx W
0V
bx U
bx T
bx S
0R
bx Q
bx P
0O
0N
b0xxxxxxxxxxxxxxxxxxxxxxxxxx M
0L
b0xxxxxxxxxxxxxxxxxxxxxxxxxx K
bx J
xI
xH
0G
xF
bx E
b0x D
bx C
1B
xA
bx @
0?
b10000 >
bx =
bx <
0;
0:
bx 9
bx 8
x7
x6
bx 5
x4
x3
bx 2
x1
x0
bx /
0.
1-
bx ,
bx +
bx *
bx )
bx (
bx '
bx &
bx %
bx $
bx #
b0 "
0!
$end
#500
1_"
1`"
b0 ^"
b0 o"
b0 p"
0F
0I
0K"
0E"
1l"
b0 E
b0 |
b0 '"
0$"
04"
0B"
0H
1a"
0]"
0Z
1Y
06
b0 5
b0 3"
07
03
04
1q"
01
1-#
00
b0 v
b0 C
b0 n
b0 #"
0w
0o
b0 D
b0 P"
b0 @
b0 9"
0Q"
0A
b0 M"
b0 R"
0S"
0O"
0N"
0d"
b0 c"
b0 k"
b0 \"
b0 ]
b0 &"
b0 b"
b0 +
b0 *
b0 )
b0 ,
b0 8
b0 8"
b0 '
b0 &
b0 2
b0 X"
b0 x"
b0 (
b0 %
b0 #
b0 $
b0 /
b0 ##
b0 4#
1!
1.
#600
b1 "
#1000
0!
0.
#1500
b0 =
b0 Y"
b0 s"
1!
1.
#1600
b10 "
#2000
0!
0.
#2500
1!
1.
#2600
b11 "
#3000
0!
0.
#3500
1!
1.
#3600
b100 "
#4000
0?#
0_
0!
0.
0-
0B
#4500
0_"
0l"
0a"
1?
0t"
bx v
bx C
bx n
bx #"
1d"
b1 w"
1!
1.
#4600
b101 "
#5000
0!
0.
#5500
0?
1t"
b1 v"
bx =
bx Y"
bx s"
1!
1.
#5600
b110 "
#6000
0!
0.
#6500
1!
1.
#6600
b111 "
#7000
0!
0.
#7500
1!
1.
#7600
b1000 "
#8000
0!
0.
#8500
1!
1.
#8600
b1001 "
#9000
0!
0.
#9500
1!
1.
#9600
b1010 "
#10000
0!
0.
#10500
1!
1.
#10600
b1011 "
#11000
0!
0.
#11500
1!
1.
#11600
b1100 "
#12000
0!
0.
#12500
1!
1.
#12600
b1101 "
#13000
0!
0.
#13500
1!
1.
#13600
b1110 "
#14000
0!
0.
#14500
1!
1.
#14600
b1111 "
#15000
0!
0.
#15500
1!
1.
#15600
b10000 "
#16000
0!
0.
#16500
1!
1.
#16600
b10001 "
#17000
0!
0.
#17500
1!
1.
#17600
b10010 "
#18000
0!
0.
#18500
13
b1 '
1!
1.
#18600
b10011 "
#19000
0!
0.
#19500
1\
0|"
b0 [
b0 ["
b0 {"
b0 <#
b1 !#
1!
1.
#19600
b10100 "
#20000
0!
0.
#20500
0?#
0_
b0 q
0`"
0t
b0 u
0?"
b0 p
b0 f
b0 l
b0 z
1<"
0,#
0F
0s
0a
b0 W"
b0 e"
b0 h
b0 x
b0 ""
b0 7"
b0 $#
b0zzzzzzzzzzzzzzzzzz00 (#
b0zzzzzzzzzzzzzzzzzz00 +#
0R
0V
0L
0^
0N
0O
b0 U"
b0 g"
b0 V"
b0 i"
b100 m"
b0 g
b0 k
b0 !"
b0 6"
b0 T
b0 ~
b0 /"
0i
0Y
b0 A"
b0 C"
b0 K
b0 *"
b0 M
b0 +"
b0 1"
b0 T"
b0 y
b0 P
b0 ,"
b0 2"
b0 S
b0 }
b0 ."
b0 J
b0 {
b0 )"
b0 Q
b0 j
b0 -"
b0 U
b0 m
b0 0"
1X
0@#
b1 b"
b0 W
b0 ("
b0 5"
b0 >#
b10 C#
b1 ~"
b0 [
b0 ["
b0 {"
b0 <#
b10 !#
1!
1.
#20600
b10101 "
#21000
0!
0.
#21500
b10 b"
b0 v
b0 C
b0 n
b0 #"
b11 C#
b11 !#
b10 ~"
b0 [
b0 ["
b0 {"
b0 <#
1!
1.
#21600
b10110 "
#22000
0!
0.
#22500
03
b11 b"
b0 '
b100 C#
b11 ~"
b0 [
b0 ["
b0 {"
b0 <#
b100 !#
1!
1.
#22600
b10111 "
#23000
0!
0.
#23500
1G"
1]"
1Z
0\
1|"
b100 b"
b101 C#
b100 ~"
bx [
bx ["
bx {"
bx <#
1!
1.
#23600
b11000 "
#24000
0!
0.
#24500
1a"
0d"
1!
1.
#24600
b11001 "
#25000
0!
0.
#25500
17
b1 +
b100 )
b1 ,
b1 8
b1 8"
1!
1.
#25600
b11010 "
#26000
0!
0.
#26500
07
b1 R"
b0 +
b0 )
b0 ,
b0 8
b0 8"
1!
1.
#26600
b11011 "
#27000
0!
0.
#27500
b10 R"
b1 P"
b1 @
b1 9"
1!
1.
#27600
b11100 "
#28000
0!
0.
#28500
1H
b10 P"
b10 @
b10 9"
b11 R"
1!
1.
#28600
b11101 "
#29000
0!
0.
#29500
1F
1I
0H
1$"
14"
b100 R"
b11 P"
b11 @
b11 9"
1w
1o
b1 D
1!
1.
#29600
b11110 "
#30000
0!
0.
#30500
xE"
x?#
x<"
xF"
b0x00 E
b0x00 |
b0x00 '"
x`"
x_
x_"
xn"
bx ^"
bx o"
bx p"
x?"
xG
bx q
x@"
x,#
xj"
xf"
xt
x:"
x;"
bx p
xR
xV
xL
x^
xN
xO
bx f
bx l
bx z
xF
0I
0G"
bxzzzzzzzzzzzzzzzzzzxx (#
bxzzzzzzzzzzzzzzzzzzxx +#
bx h
bx x
bx ""
bx 7"
bx $#
xs
bx W"
bx e"
xD"
bx U"
bx g"
bx V"
bx i"
xa
bx T
bx ~
bx /"
bx g
bx k
bx !"
bx 6"
bx u
xi
0$"
04"
bx m"
0]"
0Z
bx A"
bx C"
b0xxxxxxxxxxxxxxxxxxxxxxxxxx K
b0xxxxxxxxxxxxxxxxxxxxxxxxxx *"
b0xxxxxxxxxxxxxxxxxxxxxxxxxx M
b0xxxxxxxxxxxxxxxxxxxxxxxxxx +"
bx 1"
b0xxxxxxxxxxxxxxxx T"
b0xxxxxxxxxxxxxxxx y
bx P
bx ,"
bx 2"
bx S
bx }
bx ."
bx J
bx {
bx )"
bx Q
bx j
bx -"
bx U
bx m
bx 0"
0w
0o
b0 D
b100 P"
b100 @
b100 9"
1N"
b100 c"
b100 k"
b100 \"
b100 ]
b100 &"
b11 b"
b1 B#
bx W
bx ("
bx 5"
bx >#
1!
1.
#30600
b11111 "
#31000
0!
0.
#31500
0D"
0F"
0E"
0N"
bx v
bx C
bx n
bx #"
1!
1.
#31600
b100000 "
#32000
0!
0.
#32500
1!
1.
#32600
b100001 "
#33000
0!
0.
#33500
1!
1.
#33600
b100010 "
#34000
0!
0.
#34500
1!
1.
#34600
b100011 "
#35000
0!
0.
#35500
1!
1.
#35600
b100100 "
#36000
0!
0.
#36500
1!
1.
#36600
b100101 "
#37000
0!
0.
#37500
1!
1.
#37600
b100110 "
#38000
0!
0.
#38500
1!
1.
#38600
b100111 "
#39000
0!
0.
#39500
1!
1.
#39600
b101000 "
#40000
0!
0.
#40500
1!
1.
#40600
b101001 "
#41000
0!
0.
#41500
1!
1.
#41600
b101010 "
#42000
0!
0.
#42500
1!
1.
#42600
b101011 "
#43000
0!
0.
#43500
1!
1.
#43600
b101100 "
#44000
0!
0.
#44500
1!
1.
#44600
b101101 "
#45000
0!
0.
#45500
1!
1.
#45600
b101110 "
#46000
0!
0.
#46500
1!
1.
#46600
b101111 "
#47000
0!
0.
#47500
1!
1.
#47600
b110000 "
#48000
0!
0.
#48500
1!
1.
#48600
b110001 "
#49000
0!
0.
#49500
1!
1.
#49600
b110010 "
#50000
0!
0.
#50500
1!
1.
#50600
b110011 "
#51000
0!
0.
#51500
1!
1.
#51600
b110100 "
#52000
0!
0.
#52500
1!
1.
#52600
b110101 "
#53000
0!
0.
#53500
1!
1.
#53600
b110110 "
#54000
0!
0.
#54500
1!
1.
#54600
b110111 "
#55000
0!
0.
#55500
1!
1.
#55600
b111000 "
#56000
0!
0.
#56500
1!
1.
#56600
b111001 "
#57000
0!
0.
#57500
1!
1.
#57600
b111010 "
#58000
0!
0.
#58500
1!
1.
#58600
b111011 "
#59000
0!
0.
#59500
1!
1.
#59600
b111100 "
#60000
0!
0.
#60500
1!
1.
#60600
b111101 "
#61000
0!
0.
#61500
1!
1.
#61600
b111110 "
#62000
0!
0.
#62500
1!
1.
#62600
b111111 "
#63000
0!
0.
#63500
1!
1.
#63600
b1000000 "
#64000
0!
0.
#64500
1!
1.
#64600
b1000001 "
#65000
0!
0.
#65500
1!
1.
#65600
b1000010 "
#66000
0!
0.
#66500
1!
1.
#66600
b1000011 "
#67000
0!
0.
#67500
1!
1.
#67600
b1000100 "
#68000
0!
0.
#68500
1!
1.
#68600
b1000101 "
#69000
0!
0.
#69500
1!
1.
#69600
b1000110 "
#70000
0!
0.
#70500
1!
1.
#70600
b1000111 "
#71000
0!
0.
#71500
1!
1.
#71600
b1001000 "
#72000
0!
0.
#72500
1!
1.
#72600
b1001001 "
#73000
0!
0.
#73500
1!
1.
#73600
b1001010 "
#74000
0!
0.
#74500
1!
1.
#74600
b1001011 "
#75000
0!
0.
#75500
1!
1.
#75600
b1001100 "
#76000
0!
0.
#76500
1!
1.
#76600
b1001101 "
#77000
0!
0.
#77500
1!
1.
#77600
b1001110 "
#78000
0!
0.
#78500
1!
1.
#78600
b1001111 "
#79000
0!
0.
#79500
1!
1.
#79600
b1010000 "
#80000
0!
0.
#80500
1!
1.
#80600
b1010001 "
#81000
0!
0.
#81500
1!
1.
#81600
b1010010 "
#82000
0!
0.
#82500
1!
1.
#82600
b1010011 "
#83000
0!
0.
#83500
1!
1.
#83600
b1010100 "
#84000
0!
0.
#84500
1!
1.
#84600
b1010101 "
#85000
0!
0.
#85500
1!
1.
#85600
b1010110 "
#86000
0!
0.
#86500
1!
1.
#86600
b1010111 "
#87000
0!
0.
#87500
1!
1.
#87600
b1011000 "
#88000
0!
0.
#88500
1!
1.
#88600
b1011001 "
#89000
0!
0.
#89500
1!
1.
#89600
b1011010 "
#90000
0!
0.
#90500
1!
1.
#90600
b1011011 "
#91000
0!
0.
#91500
1!
1.
#91600
b1011100 "
#92000
0!
0.
#92500
1!
1.
#92600
b1011101 "
#93000
0!
0.
#93500
1!
1.
#93600
b1011110 "
#94000
0!
0.
#94500
1!
1.
#94600
b1011111 "
#95000
0!
0.
#95500
1!
1.
#95600
b1100000 "
#96000
0!
0.
#96500
1!
1.
#96600
b1100001 "
#97000
0!
0.
#97500
1!
1.
#97600
b1100010 "
#98000
0!
0.
#98500
1!
1.
#98600
b1100011 "
#99000
0!
0.
#99500
1!
1.
#99600
b1100100 "
#100000
0!
0.
#100500
1!
1.
#100600
b1100101 "
#101000
0!
0.
#101500
1!
1.
#101600
b1100110 "
#102000
0!
0.
#102500
1!
1.
#102600
b1100111 "
#103000
0!
0.
#103500
1!
1.
#103600
b1101000 "
#104000
0!
0.
#104500
1!
1.
#104600
b1101001 "
#105000
0!
0.
#105500
1!
1.
#105600
b1101010 "
#106000
0!
0.
#106500
1!
1.
#106600
b1101011 "
#107000
0!
0.
#107500
1!
1.
#107600
b1101100 "
#108000
0!
0.
#108500
1!
1.
#108600
b1101101 "
#109000
0!
0.
#109500
1!
1.
#109600
b1101110 "
#110000
0!
0.
#110500
1!
1.
#110600
b1101111 "
#111000
0!
0.
#111500
1!
1.
#111600
b1110000 "
#112000
0!
0.
#112500
1!
1.
#112600
b1110001 "
#113000
0!
0.
#113500
1!
1.
#113600
b1110010 "
#114000
0!
0.
#114500
1!
1.
#114600
b1110011 "
#115000
0!
0.
#115500
1!
1.
#115600
b1110100 "
#116000
0!
0.
#116500
1!
1.
#116600
b1110101 "
#117000
0!
0.
#117500
1!
1.
#117600
b1110110 "
#118000
0!
0.
#118500
1!
1.
#118600
b1110111 "
#119000
0!
0.
#119500
1!
1.
#119600
b1111000 "
#120000
0!
0.
#120500
1!
1.
#120600
b1111001 "
#121000
0!
0.
#121500
1!
1.
#121600
b1111010 "
#122000
0!
0.
#122500
1!
1.
#122600
b1111011 "
#123000
0!
0.
#123500
1!
1.
#123600
b1111100 "
#124000
0!
0.
#124500
1!
1.
#124600
b1111101 "
#125000
0!
0.
#125500
1!
1.
#125600
b1111110 "
#126000
0!
0.
#126500
1!
1.
#126600
b1111111 "
#127000
0!
0.
#127500
1!
1.
#127600
b10000000 "
#128000
0!
0.
#128500
1!
1.
#128600
b10000001 "
#129000
0!
0.
#129500
1!
1.
#129600
b10000010 "
#130000
0!
0.
#130500
1!
1.
#130600
b10000011 "
#131000
0!
0.
#131500
1!
1.
#131600
b10000100 "
#132000
0!
0.
#132500
1!
1.
#132600
b10000101 "
#133000
0!
0.
#133500
1!
1.
#133600
b10000110 "
#134000
0!
0.
#134500
1!
1.
#134600
b10000111 "
#135000
0!
0.
#135500
1!
1.
#135600
b10001000 "
#136000
0!
0.
#136500
1!
1.
#136600
b10001001 "
#137000
0!
0.
#137500
1!
1.
#137600
b10001010 "
#138000
0!
0.
#138500
1!
1.
#138600
b10001011 "
#139000
0!
0.
#139500
1!
1.
#139600
b10001100 "
#140000
0!
0.
#140500
1!
1.
#140600
b10001101 "
#141000
0!
0.
#141500
1!
1.
#141600
b10001110 "
#142000
0!
0.
#142500
1!
1.
#142600
b10001111 "
#143000
0!
0.
#143500
1!
1.
#143600
b10010000 "
#144000
0!
0.
#144500
1!
1.
#144600
b10010001 "
#145000
0!
0.
#145500
1!
1.
#145600
b10010010 "
#146000
0!
0.
#146500
1!
1.
#146600
b10010011 "
#147000
0!
0.
#147500
1!
1.
#147600
b10010100 "
#148000
0!
0.
#148500
1!
1.
#148600
b10010101 "
#149000
0!
0.
#149500
1!
1.
#149600
b10010110 "
#150000
0!
0.
#150500
1!
1.
#150600
b10010111 "
#151000
0!
0.
#151500
1!
1.
#151600
b10011000 "
#152000
0!
0.
#152500
1!
1.
#152600
b10011001 "
#153000
0!
0.
#153500
1!
1.
#153600
b10011010 "
#154000
0!
0.
#154500
1!
1.
#154600
b10011011 "
#155000
0!
0.
#155500
1!
1.
#155600
b10011100 "
#156000
0!
0.
#156500
1!
1.
#156600
b10011101 "
#157000
0!
0.
#157500
1!
1.
#157600
b10011110 "
#158000
0!
0.
#158500
1!
1.
#158600
b10011111 "
#159000
0!
0.
#159500
1!
1.
#159600
b10100000 "
#160000
0!
0.
#160500
1!
1.
#160600
b10100001 "
#161000
0!
0.
#161500
1!
1.
#161600
b10100010 "
#162000
0!
0.
#162500
1!
1.
#162600
b10100011 "
#163000
0!
0.
#163500
1!
1.
#163600
b10100100 "
#164000
0!
0.
#164500
1!
1.
#164600
b10100101 "
#165000
0!
0.
#165500
1!
1.
#165600
b10100110 "
#166000
0!
0.
#166500
1!
1.
#166600
b10100111 "
#167000
0!
0.
