inst_fetch_ctrl/main.vcd
$date
	Tue Jul 23 15:17:40 2019
$end
$version
	Icarus Verilog
$end
$timescale
	1ps
$end
$scope module main $end
$var reg 1 ! clk $end
$var reg 32 " data [31:0] $end
$var reg 1 # readdata_valid $end
$var reg 1 $ rst $end
$var reg 1 % valid $end
$scope module uInst_fetch_ctrl $end
$var wire 1 & clk $end
$var wire 18 ' i_be_bne_addr [17:0] $end
$var wire 1 ( i_be_bne_valid $end
$var wire 1 ) i_inst_complete $end
$var wire 18 * i_j_addr [17:0] $end
$var wire 1 + i_j_valid $end
$var wire 18 , i_jal_addr [17:0] $end
$var wire 1 - i_jal_valid $end
$var wire 18 . i_jr_addr [17:0] $end
$var wire 1 / i_jr_valid $end
$var wire 1 0 i_permit_fetch $end
$var wire 32 1 i_readdata [31:0] $end
$var wire 1 2 i_readdatavalid $end
$var wire 1 3 i_waitrequest $end
$var wire 18 4 o_addr [17:0] $end
$var wire 32 5 o_burstcount [31:0] $end
$var wire 1 6 o_fetch_complete $end
$var wire 32 7 o_inst [31:0] $end
$var wire 1 8 o_inst_empty $end
$var wire 1 9 o_inst_valid $end
$var wire 1 : o_read $end
$var wire 18 ; o_ret_addr [17:0] $end
$var wire 1 < o_ret_addr_valid $end
$var wire 1 = rst $end
$var wire 18 > w_readinst_fifo_in_data [17:0] $end
$var wire 1 ? w_readinst_fifo_in_valid $end
$var reg 18 @ r_inst_counter [17:0] $end
$var reg 18 A r_program_counter [17:0] $end
$scope module uArb5 $end
$var wire 1 & clk $end
$var wire 18 B iSnk0Data [17:0] $end
$var wire 1 C iSnk0Valid $end
$var wire 18 D iSnk1Data [17:0] $end
$var wire 1 E iSnk1Valid $end
$var wire 18 F iSnk2Data [17:0] $end
$var wire 1 G iSnk2Valid $end
$var wire 18 H iSnk3Data [17:0] $end
$var wire 1 I iSnk3Valid $end
$var wire 18 J iSnk4Data [17:0] $end
$var wire 1 K iSnk4Valid $end
$var wire 18 L oSrc0Data [17:0] $end
$var wire 1 ? oSrc0Valid $end
$var wire 1 = rst $end
$upscope $end
$scope module uReadinst $end
$var wire 1 & clk $end
$var wire 18 M i_snk_data [17:0] $end
$var wire 1 ? i_snk_valid $end
$var wire 1 N i_src_ready $end
$var wire 1 O o_snk_ready $end
$var wire 18 P o_src_data [17:0] $end
$var wire 1 : o_src_valid $end
$var wire 1 = rst $end
$var wire 1 Q w_empty $end
$var wire 1 R w_full $end
$var reg 3 S r_ptr [2:0] $end
$var reg 3 T w_ptr [2:0] $end
$upscope $end
$scope module uReaddata $end
$var wire 1 & clk $end
$var wire 32 U i_snk_data [31:0] $end
$var wire 1 2 i_snk_valid $end
$var wire 1 V i_src_ready $end
$var wire 1 W o_snk_ready $end
$var wire 32 X o_src_data [31:0] $end
$var wire 1 9 o_src_valid $end
$var wire 1 = rst $end
$var wire 1 Y w_empty $end
$var wire 1 Z w_full $end
$var reg 3 [ r_ptr [2:0] $end
$var reg 3 \ w_ptr [2:0] $end
$upscope $end
$upscope $end
$upscope $end
$enddefinitions $end
#0
$dumpvars
b0 \
b0 [
0Z
1Y
bx X
1W
1V
b0 U
b0 T
b0 S
0R
1Q
bx P
1O
1N
bx M
bx L
xK
bx J
xI
bx H
0G
b0 F
0E
b0 D
0C
b0 B
bx A
bx @
x?
bx >
1=
0<
bx ;
0:
09
x8
bx 7
x6
b10000 5
bx 4
03
02
b0 1
10
0/
b0 .
0-
b0 ,
0+
b0 *
0)
z(
bz '
0&
0%
1$
0#
b0 "
0!
$end
#500
b0 >
b0 L
b0 M
1?
1I
18
06
b1 .
b1 B
b1 1
b1 U
b0 A
b0 H
b0 ;
b0 @
b1 "
1!
1&
#1000
0!
0&
#1500
b10 >
b10 L
b10 M
1C
b10 .
b10 B
b10 1
b10 U
1%
1/
b10 "
b0 4
b0 P
1!
1&
#2000
0!
0&
#2500
b11 >
b11 L
b11 M
b11 .
b11 B
b11 1
b11 U
b10 4
b10 P
b11 "
1!
1&
#3000
0!
0&
#3500
b100 >
b100 L
b100 M
b100 .
b100 B
b100 1
b100 U
b100 "
b11 4
b11 P
1!
1&
#4000
0!
0&
0$
0=
#4500
b101 >
b101 L
b101 M
b101 .
b101 B
b101 1
b101 U
1:
0Q
b100 4
b100 P
b100 A
b100 H
b100 ;
b101 "
b1 T
1!
1&
#5000
0!
0&
#5500
b110 >
b110 L
b110 M
b110 .
b110 B
b110 1
b110 U
b110 "
b101 A
b101 H
b101 ;
b10 T
b1 S
b101 4
b101 P
1!
1&
#6000
0!
0&
#6500
b111 >
b111 L
b111 M
b111 .
b111 B
b111 1
b111 U
b110 A
b110 H
b110 ;
b111 "
b10 S
b110 4
b110 P
b11 T
1!
1&
#7000
0!
0&
#7500
b111 >
b111 L
b111 M
0C
b1000 .
b1000 B
b1000 1
b1000 U
0%
0/
b1000 "
b111 A
b111 H
b111 ;
b100 T
b11 S
b111 4
b111 P
1!
1&
#8000
0!
0&
1#
12
#8500
b1001 >
b1001 L
b1001 M
b1001 .
b1001 B
b1001 1
b1001 U
1C
19
0Y
b1000 7
b1000 X
b1001 "
1%
1/
b1 \
b100 S
b111 4
b111 P
b101 T
1!
1&
#9000
0!
0&
#9500
b1010 >
b1010 L
b1010 M
b1010 .
b1010 B
b1010 1
b1010 U
b1010 "
b1001 A
b1001 H
b1001 ;
b110 T
b101 S
b1001 4
b1001 P
b10 \
b1 [
b1001 7
b1001 X
1!
1&
#10000
0!
0&
#10500
b1010 >
b1010 L
b1010 M
b1011 .
b1011 B
b1011 1
b1011 U
0C
b1010 A
b1010 H
b1010 ;
b1011 "
0%
0/
b10 [
b1010 7
b1010 X
b11 \
b110 S
b1010 4
b1010 P
b111 T
1!
1&
#11000
0!
0&
#11500
b1100 >
b1100 L
b1100 M
0I
1C
b1100 .
b1100 B
b1100 1
b1100 U
08
1%
1/
b1100 "
b1 @
b0 T
b111 S
b1010 4
b1010 P
b100 \
b11 [
b1011 7
b1011 X
1!
1&
#12000
0!
0&
0#
02
#12500
1I
b1101 >
b1101 L
b1101 M
18
b1101 .
b1101 B
b1101 1
b1101 U
09
1Y
b1100 A
b1100 H
b1100 ;
b0 @
b1101 "
b100 [
bx 7
bx X
b0 S
b1100 4
b1100 P
b1 T
1!
1&
#13000
0!
0&
#13500
b1101 >
b1101 L
b1101 M
0C
b1110 .
b1110 B
b1110 1
b1110 U
0%
0/
b1110 "
b1101 A
b1101 H
b1101 ;
b10 T
b1 S
b1101 4
b1101 P
1!
1&
#14000
0!
0&
#14500
b1111 >
b1111 L
b1111 M
b1111 .
b1111 B
b1111 1
b1111 U
1C
b1111 "
1%
1/
b10 S
b1101 4
b1101 P
b11 T
1!
1&
#15000
0!
0&
#15500
b1111 >
b1111 L
b1111 M
0C
b10000 .
b10000 B
b10000 1
b10000 U
0%
0/
b10000 "
b1111 A
b1111 H
b1111 ;
b100 T
b11 S
b1111 4
b1111 P
1!
1&
#16000
0!
0&
#16500
b10001 >
b10001 L
b10001 M
b10001 .
b10001 B
b10001 1
b10001 U
1C
b10001 "
1%
1/
b100 S
b1111 4
b1111 P
b101 T
1!
1&
#17000
0!
0&
#17500
b10001 >
b10001 L
b10001 M
0C
b10010 .
b10010 B
b10010 1
b10010 U
0%
0/
b10010 "
b10001 A
b10001 H
b10001 ;
b110 T
b101 S
b10001 4
b10001 P
1!
1&
#18000
0!
0&
#18500
b10011 >
b10011 L
b10011 M
b10011 .
b10011 B
b10011 1
b10011 U
1C
b10011 "
1%
1/
b110 S
b10001 4
b10001 P
b111 T
1!
1&
#19000
0!
0&
#19500
b10100 >
b10100 L
b10100 M
b10100 .
b10100 B
b10100 1
b10100 U
b10100 "
b10011 A
b10011 H
b10011 ;
b0 T
b111 S
b10011 4
b10011 P
1!
1&
#20000
0!
0&
#20500
b10100 >
b10100 L
b10100 M
b10101 .
b10101 B
b10101 1
b10101 U
0C
b10100 A
b10100 H
b10100 ;
b10101 "
0%
0/
b0 S
b10100 4
b10100 P
b1 T
1!
1&
#21000
0!
0&
#21500
b10110 >
b10110 L
b10110 M
1C
b10110 .
b10110 B
b10110 1
b10110 U
1%
1/
b10110 "
b10 T
b1 S
b10100 4
b10100 P
1!
1&
#22000
0!
0&
#22500
b10110 >
b10110 L
b10110 M
b10111 .
b10111 B
b10111 1
b10111 U
0C
b10110 A
b10110 H
b10110 ;
b10111 "
0%
0/
b10 S
b10110 4
b10110 P
b11 T
1!
1&
#23000
0!
0&
#23500
b11000 .
b11000 B
b11000 1
b11000 U
b11000 "
b100 T
b11 S
b10110 4
b10110 P
1!
1&
#24000
0!
0&
#24500
b11001 .
b11001 B
b11001 1
b11001 U
b11001 "
b100 S
b10110 4
b10110 P
b101 T
1!
1&
#25000
0!
0&
#25500
b11010 >
b11010 L
b11010 M
1C
b11010 .
b11010 B
b11010 1
b11010 U
1%
1/
b11010 "
b110 T
b101 S
b10110 4
b10110 P
1!
1&
#26000
0!
0&
#26500
b11010 >
b11010 L
b11010 M
b11011 .
b11011 B
b11011 1
b11011 U
0C
b11010 A
b11010 H
b11010 ;
b11011 "
0%
0/
b110 S
b11010 4
b11010 P
b111 T
1!
1&
#27000
0!
0&
#27500
b11100 >
b11100 L
b11100 M
1C
b11100 .
b11100 B
b11100 1
b11100 U
1%
1/
b11100 "
b0 T
b111 S
b11010 4
b11010 P
1!
1&
#28000
0!
0&
#28500
b11101 >
b11101 L
b11101 M
b11101 .
b11101 B
b11101 1
b11101 U
b11100 A
b11100 H
b11100 ;
b11101 "
b0 S
b11100 4
b11100 P
b1 T
1!
1&
#29000
0!
0&
#29500
b11110 >
b11110 L
b11110 M
b11110 .
b11110 B
b11110 1
b11110 U
b11110 "
b11101 A
b11101 H
b11101 ;
b10 T
b1 S
b11101 4
b11101 P
1!
1&
#30000
0!
0&
#30500
b11111 >
b11111 L
b11111 M
b11111 .
b11111 B
b11111 1
b11111 U
b11110 A
b11110 H
b11110 ;
b11111 "
b10 S
b11110 4
b11110 P
b11 T
1!
1&
#31000
0!
0&
#31500
b11111 >
b11111 L
b11111 M
0C
b100000 .
b100000 B
b100000 1
b100000 U
0%
0/
b100000 "
b11111 A
b11111 H
b11111 ;
b100 T
b11 S
b11111 4
b11111 P
1!
1&
#32000
0!
0&
#32500
b100001 .
b100001 B
b100001 1
b100001 U
b100001 "
b100 S
b11111 4
b11111 P
b101 T
1!
1&
#33000
0!
0&
#33500
b100010 .
b100010 B
b100010 1
b100010 U
b100010 "
b110 T
b101 S
b11111 4
b11111 P
1!
1&
#34000
0!
0&
#34500
b100011 .
b100011 B
b100011 1
b100011 U
b100011 "
b110 S
b11111 4
b11111 P
b111 T
1!
1&
#35000
0!
0&
#35500
b100100 >
b100100 L
b100100 M
1C
b100100 .
b100100 B
b100100 1
b100100 U
1%
1/
b100100 "
b0 T
b111 S
b11111 4
b11111 P
1!
1&
#36000
0!
0&
#36500
b100100 >
b100100 L
b100100 M
b100101 .
b100101 B
b100101 1
b100101 U
0C
b100100 A
b100100 H
b100100 ;
b100101 "
0%
0/
b0 S
b100100 4
b100100 P
b1 T
1!
1&
#37000
0!
0&
#37500
b100110 >
b100110 L
b100110 M
1C
b100110 .
b100110 B
b100110 1
b100110 U
1%
1/
b100110 "
b10 T
b1 S
b100100 4
b100100 P
1!
1&
#38000
0!
0&
#38500
b100111 >
b100111 L
b100111 M
b100111 .
b100111 B
b100111 1
b100111 U
b100110 A
b100110 H
b100110 ;
b100111 "
b10 S
b100110 4
b100110 P
b11 T
1!
1&
#39000
0!
0&
#39500
b101000 >
b101000 L
b101000 M
b101000 .
b101000 B
b101000 1
b101000 U
b101000 "
b100111 A
b100111 H
b100111 ;
b100 T
b11 S
b100111 4
b100111 P
1!
1&
#40000
0!
0&
#40500
b101001 >
b101001 L
b101001 M
b101001 .
b101001 B
b101001 1
b101001 U
b101000 A
b101000 H
b101000 ;
b101001 "
b100 S
b101000 4
b101000 P
b101 T
1!
1&
#41000
0!
0&
#41500
b101010 >
b101010 L
b101010 M
b101010 .
b101010 B
b101010 1
b101010 U
b101010 "
b101001 A
b101001 H
b101001 ;
b110 T
b101 S
b101001 4
b101001 P
1!
1&
#42000
0!
0&
#42500
b101010 >
b101010 L
b101010 M
b101011 .
b101011 B
b101011 1
b101011 U
0C
b101010 A
b101010 H
b101010 ;
b101011 "
0%
0/
b110 S
b101010 4
b101010 P
b111 T
1!
1&
#43000
0!
0&
#43500
b101100 .
b101100 B
b101100 1
b101100 U
b101100 "
b0 T
b111 S
b101010 4
b101010 P
1!
1&
#44000
0!
0&
#44500
b101101 >
b101101 L
b101101 M
b101101 .
b101101 B
b101101 1
b101101 U
1C
b101101 "
1%
1/
b0 S
b101010 4
b101010 P
b1 T
1!
1&
#45000
0!
0&
#45500
b101110 >
b101110 L
b101110 M
b101110 .
b101110 B
b101110 1
b101110 U
b101110 "
b101101 A
b101101 H
b101101 ;
b10 T
b1 S
b101101 4
b101101 P
1!
1&
#46000
0!
0&
#46500
b101111 >
b101111 L
b101111 M
b101111 .
b101111 B
b101111 1
b101111 U
b101110 A
b101110 H
b101110 ;
b101111 "
b10 S
b101110 4
b101110 P
b11 T
1!
1&
#47000
0!
0&
#47500
b101111 >
b101111 L
b101111 M
0C
b110000 .
b110000 B
b110000 1
b110000 U
0%
0/
b110000 "
b101111 A
b101111 H
b101111 ;
b100 T
b11 S
b101111 4
b101111 P
1!
1&
#48000
0!
0&
#48500
b110001 .
b110001 B
b110001 1
b110001 U
b110001 "
b100 S
b101111 4
b101111 P
b101 T
1!
1&
#49000
0!
0&
#49500
b110010 .
b110010 B
b110010 1
b110010 U
b110010 "
b110 T
b101 S
b101111 4
b101111 P
1!
1&
#50000
0!
0&
#50500
b110011 .
b110011 B
b110011 1
b110011 U
b110011 "
b110 S
b101111 4
b101111 P
b111 T
1!
1&
#51000
0!
0&
#51500
b110100 .
b110100 B
b110100 1
b110100 U
b110100 "
b0 T
b111 S
b101111 4
b101111 P
1!
1&
#52000
0!
0&
#52500
b110101 >
b110101 L
b110101 M
b110101 .
b110101 B
b110101 1
b110101 U
1C
b110101 "
1%
1/
b0 S
b101111 4
b101111 P
b1 T
1!
1&
#53000
0!
0&
#53500
b110101 >
b110101 L
b110101 M
0C
b110110 .
b110110 B
b110110 1
b110110 U
0%
0/
b110110 "
b110101 A
b110101 H
b110101 ;
b10 T
b1 S
b110101 4
b110101 P
1!
1&
#54000
0!
0&
#54500
b110111 .
b110111 B
b110111 1
b110111 U
b110111 "
b10 S
b110101 4
b110101 P
b11 T
1!
1&
#55000
0!
0&
#55500
b111000 >
b111000 L
b111000 M
1C
b111000 .
b111000 B
b111000 1
b111000 U
1%
1/
b111000 "
b100 T
b11 S
b110101 4
b110101 P
1!
1&
#56000
0!
0&
#56500
b111001 >
b111001 L
b111001 M
b111001 .
b111001 B
b111001 1
b111001 U
b111000 A
b111000 H
b111000 ;
b111001 "
b100 S
b111000 4
b111000 P
b101 T
1!
1&
#57000
0!
0&
#57500
b111001 >
b111001 L
b111001 M
0C
b111010 .
b111010 B
b111010 1
b111010 U
0%
0/
b111010 "
b111001 A
b111001 H
b111001 ;
b110 T
b101 S
b111001 4
b111001 P
1!
1&
#58000
0!
0&
#58500
b111011 .
b111011 B
b111011 1
b111011 U
b111011 "
b110 S
b111001 4
b111001 P
b111 T
1!
1&
#59000
0!
0&
#59500
b111100 .
b111100 B
b111100 1
b111100 U
b111100 "
b0 T
b111 S
b111001 4
b111001 P
1!
1&
#60000
0!
0&
#60500
b111101 .
b111101 B
b111101 1
b111101 U
b111101 "
b0 S
b111001 4
b111001 P
b1 T
1!
1&
#61000
0!
0&
#61500
b111110 .
b111110 B
b111110 1
b111110 U
b111110 "
b10 T
b1 S
b111001 4
b111001 P
1!
1&
#62000
0!
0&
#62500
b111111 >
b111111 L
b111111 M
b111111 .
b111111 B
b111111 1
b111111 U
1C
b111111 "
1%
1/
b10 S
b111001 4
b111001 P
b11 T
1!
1&
#63000
0!
0&
#63500
b1000000 >
b1000000 L
b1000000 M
b1000000 .
b1000000 B
b1000000 1
b1000000 U
b1000000 "
b111111 A
b111111 H
b111111 ;
b100 T
b11 S
b111111 4
b111111 P
1!
1&
#64000
0!
0&
#64500
b1000001 >
b1000001 L
b1000001 M
b1000001 .
b1000001 B
b1000001 1
b1000001 U
b1000000 A
b1000000 H
b1000000 ;
b1000001 "
b100 S
b1000000 4
b1000000 P
b101 T
1!
1&
#65000
0!
0&
#65500
b1000010 >
b1000010 L
b1000010 M
b1000010 .
b1000010 B
b1000010 1
b1000010 U
b1000010 "
b1000001 A
b1000001 H
b1000001 ;
b110 T
b101 S
b1000001 4
b1000001 P
1!
1&
#66000
0!
0&
#66500
b1000011 >
b1000011 L
b1000011 M
b1000011 .
b1000011 B
b1000011 1
b1000011 U
b1000010 A
b1000010 H
b1000010 ;
b1000011 "
b110 S
b1000010 4
b1000010 P
b111 T
1!
1&
#67000
0!
0&
#67500
b1000011 >
b1000011 L
b1000011 M
0C
b1000100 .
b1000100 B
b1000100 1
b1000100 U
0%
0/
b1000100 "
b1000011 A
b1000011 H
b1000011 ;
b0 T
b111 S
b1000011 4
b1000011 P
1!
1&
#68000
0!
0&
#68500
b1000101 .
b1000101 B
b1000101 1
b1000101 U
b1000101 "
b0 S
b1000011 4
b1000011 P
b1 T
1!
1&
#69000
0!
0&
#69500
b1000110 >
b1000110 L
b1000110 M
1C
b1000110 .
b1000110 B
b1000110 1
b1000110 U
1%
1/
b1000110 "
b10 T
b1 S
b1000011 4
b1000011 P
1!
1&
#70000
0!
0&
#70500
b1000111 >
b1000111 L
b1000111 M
b1000111 .
b1000111 B
b1000111 1
b1000111 U
b1000110 A
b1000110 H
b1000110 ;
b1000111 "
b10 S
b1000110 4
b1000110 P
b11 T
1!
1&
#71000
0!
0&
#71500
b1001000 >
b1001000 L
b1001000 M
b1001000 .
b1001000 B
b1001000 1
b1001000 U
b1001000 "
b1000111 A
b1000111 H
b1000111 ;
b100 T
b11 S
b1000111 4
b1000111 P
1!
1&
#72000
0!
0&
#72500
b1001000 >
b1001000 L
b1001000 M
b1001001 .
b1001001 B
b1001001 1
b1001001 U
0C
b1001000 A
b1001000 H
b1001000 ;
b1001001 "
0%
0/
b100 S
b1001000 4
b1001000 P
b101 T
1!
1&
#73000
0!
0&
#73500
b1001010 .
b1001010 B
b1001010 1
b1001010 U
b1001010 "
b110 T
b101 S
b1001000 4
b1001000 P
1!
1&
#74000
0!
0&
#74500
b1001011 >
b1001011 L
b1001011 M
b1001011 .
b1001011 B
b1001011 1
b1001011 U
1C
b1001011 "
1%
1/
b110 S
b1001000 4
b1001000 P
b111 T
1!
1&
#75000
0!
0&
#75500
b1001100 >
b1001100 L
b1001100 M
b1001100 .
b1001100 B
b1001100 1
b1001100 U
b1001100 "
b1001011 A
b1001011 H
b1001011 ;
b0 T
b111 S
b1001011 4
b1001011 P
1!
1&
#76000
0!
0&
#76500
b1001100 >
b1001100 L
b1001100 M
b1001101 .
b1001101 B
b1001101 1
b1001101 U
0C
b1001100 A
b1001100 H
b1001100 ;
b1001101 "
0%
0/
b0 S
b1001100 4
b1001100 P
b1 T
1!
1&
#77000
0!
0&
#77500
b1001110 >
b1001110 L
b1001110 M
1C
b1001110 .
b1001110 B
b1001110 1
b1001110 U
1%
1/
b1001110 "
b10 T
b1 S
b1001100 4
b1001100 P
1!
1&
#78000
0!
0&
#78500
b1001111 >
b1001111 L
b1001111 M
b1001111 .
b1001111 B
b1001111 1
b1001111 U
b1001110 A
b1001110 H
b1001110 ;
b1001111 "
b10 S
b1001110 4
b1001110 P
b11 T
1!
1&
#79000
0!
0&
#79500
b1001111 >
b1001111 L
b1001111 M
0C
b1010000 .
b1010000 B
b1010000 1
b1010000 U
0%
0/
b1010000 "
b1001111 A
b1001111 H
b1001111 ;
b100 T
b11 S
b1001111 4
b1001111 P
1!
1&
#80000
0!
0&
#80500
b1010001 >
b1010001 L
b1010001 M
b1010001 .
b1010001 B
b1010001 1
b1010001 U
1C
b1010001 "
1%
1/
b100 S
b1001111 4
b1001111 P
b101 T
1!
1&
#81000
0!
0&
#81500
b1010010 >
b1010010 L
b1010010 M
b1010010 .
b1010010 B
b1010010 1
b1010010 U
b1010010 "
b1010001 A
b1010001 H
b1010001 ;
b110 T
b101 S
b1010001 4
b1010001 P
1!
1&
#82000
0!
0&
#82500
b1010011 >
b1010011 L
b1010011 M
b1010011 .
b1010011 B
b1010011 1
b1010011 U
b1010010 A
b1010010 H
b1010010 ;
b1010011 "
b110 S
b1010010 4
b1010010 P
b111 T
1!
1&
#83000
0!
0&
#83500
b1010011 >
b1010011 L
b1010011 M
0C
b1010100 .
b1010100 B
b1010100 1
b1010100 U
0%
0/
b1010100 "
b1010011 A
b1010011 H
b1010011 ;
b0 T
b111 S
b1010011 4
b1010011 P
1!
1&
#84000
0!
0&
#84500
b1010101 >
b1010101 L
b1010101 M
b1010101 .
b1010101 B
b1010101 1
b1010101 U
1C
b1010101 "
1%
1/
b0 S
b1010011 4
b1010011 P
b1 T
1!
1&
#85000
0!
0&
#85500
b1010110 >
b1010110 L
b1010110 M
b1010110 .
b1010110 B
b1010110 1
b1010110 U
b1010110 "
b1010101 A
b1010101 H
b1010101 ;
b10 T
b1 S
b1010101 4
b1010101 P
1!
1&
#86000
0!
0&
#86500
b1010110 >
b1010110 L
b1010110 M
b1010111 .
b1010111 B
b1010111 1
b1010111 U
0C
b1010110 A
b1010110 H
b1010110 ;
b1010111 "
0%
0/
b10 S
b1010110 4
b1010110 P
b11 T
1!
1&
#87000
0!
0&
#87500
b1011000 .
b1011000 B
b1011000 1
b1011000 U
b1011000 "
b100 T
b11 S
b1010110 4
b1010110 P
1!
1&
#88000
0!
0&
#88500
b1011001 .
b1011001 B
b1011001 1
b1011001 U
b1011001 "
b100 S
b1010110 4
b1010110 P
b101 T
1!
1&
#89000
0!
0&
#89500
b1011010 .
b1011010 B
b1011010 1
b1011010 U
b1011010 "
b110 T
b101 S
b1010110 4
b1010110 P
1!
1&
#90000
0!
0&
#90500
b1011011 >
b1011011 L
b1011011 M
b1011011 .
b1011011 B
b1011011 1
b1011011 U
1C
b1011011 "
1%
1/
b110 S
b1010110 4
b1010110 P
b111 T
1!
1&
#91000
0!
0&
#91500
b1011100 >
b1011100 L
b1011100 M
b1011100 .
b1011100 B
b1011100 1
b1011100 U
b1011100 "
b1011011 A
b1011011 H
b1011011 ;
b0 T
b111 S
b1011011 4
b1011011 P
1!
1&
#92000
0!
0&
#92500
b1011100 >
b1011100 L
b1011100 M
b1011101 .
b1011101 B
b1011101 1
b1011101 U
0C
b1011100 A
b1011100 H
b1011100 ;
b1011101 "
0%
0/
b0 S
b1011100 4
b1011100 P
b1 T
1!
1&
#93000
0!
0&
#93500
b1011110 .
b1011110 B
b1011110 1
b1011110 U
b1011110 "
b10 T
b1 S
b1011100 4
b1011100 P
1!
1&
#94000
0!
0&
#94500
b1011111 >
b1011111 L
b1011111 M
b1011111 .
b1011111 B
b1011111 1
b1011111 U
1C
b1011111 "
1%
1/
b10 S
b1011100 4
b1011100 P
b11 T
1!
1&
#95000
0!
0&
#95500
b1100000 >
b1100000 L
b1100000 M
b1100000 .
b1100000 B
b1100000 1
b1100000 U
b1100000 "
b1011111 A
b1011111 H
b1011111 ;
b100 T
b11 S
b1011111 4
b1011111 P
1!
1&
#96000
0!
0&
#96500
b1100001 >
b1100001 L
b1100001 M
b1100001 .
b1100001 B
b1100001 1
b1100001 U
b1100000 A
b1100000 H
b1100000 ;
b1100001 "
b100 S
b1100000 4
b1100000 P
b101 T
1!
1&
#97000
0!
0&
#97500
b1100010 >
b1100010 L
b1100010 M
b1100010 .
b1100010 B
b1100010 1
b1100010 U
b1100010 "
b1100001 A
b1100001 H
b1100001 ;
b110 T
b101 S
b1100001 4
b1100001 P
1!
1&
#98000
0!
0&
#98500
b1100011 >
b1100011 L
b1100011 M
b1100011 .
b1100011 B
b1100011 1
b1100011 U
b1100010 A
b1100010 H
b1100010 ;
b1100011 "
b110 S
b1100010 4
b1100010 P
b111 T
1!
1&
#99000
0!
0&
#99500
b1100011 >
b1100011 L
b1100011 M
0C
b1100100 .
b1100100 B
b1100100 1
b1100100 U
0%
0/
b1100100 "
b1100011 A
b1100011 H
b1100011 ;
b0 T
b111 S
b1100011 4
b1100011 P
1!
1&
#100000
0!
0&
#100500
b1100101 >
b1100101 L
b1100101 M
b1100101 .
b1100101 B
b1100101 1
b1100101 U
1C
b1100101 "
1%
1/
b0 S
b1100011 4
b1100011 P
b1 T
1!
1&
#101000
0!
0&
#101500
b1100110 >
b1100110 L
b1100110 M
b1100110 .
b1100110 B
b1100110 1
b1100110 U
b1100110 "
b1100101 A
b1100101 H
b1100101 ;
b10 T
b1 S
b1100101 4
b1100101 P
1!
1&
#102000
0!
0&
#102500
b1100111 >
b1100111 L
b1100111 M
b1100111 .
b1100111 B
b1100111 1
b1100111 U
b1100110 A
b1100110 H
b1100110 ;
b1100111 "
b10 S
b1100110 4
b1100110 P
b11 T
1!
1&
#103000
0!
0&
#103500
b1100111 >
b1100111 L
b1100111 M
0C
b1101000 .
b1101000 B
b1101000 1
b1101000 U
0%
0/
b1101000 "
b1100111 A
b1100111 H
b1100111 ;
b100 T
b11 S
b1100111 4
b1100111 P
1!
1&
#104000
0!
0&
#104500
b1101001 .
b1101001 B
b1101001 1
b1101001 U
b1101001 "
b100 S
b1100111 4
b1100111 P
b101 T
1!
1&
#105000
0!
0&
#105500
b1101010 .
b1101010 B
b1101010 1
b1101010 U
b1101010 "
b110 T
b101 S
b1100111 4
b1100111 P
1!
1&
#106000
0!
0&
#106500
b1101011 .
b1101011 B
b1101011 1
b1101011 U
b1101011 "
b110 S
b1100111 4
b1100111 P
b111 T
1!
1&
#107000
0!
0&
#107500
b1101100 .
b1101100 B
b1101100 1
b1101100 U
b1101100 "
b0 T
b111 S
b1100111 4
b1100111 P
1!
1&
#108000
0!
0&
#108500
b1101101 .
b1101101 B
b1101101 1
b1101101 U
b1101101 "
b0 S
b1100111 4
b1100111 P
b1 T
1!
1&
#109000
0!
0&
#109500
b1101110 .
b1101110 B
b1101110 1
b1101110 U
b1101110 "
b10 T
b1 S
b1100111 4
b1100111 P
1!
1&
#110000
0!
0&
#110500
b1101111 >
b1101111 L
b1101111 M
b1101111 .
b1101111 B
b1101111 1
b1101111 U
1C
b1101111 "
1%
1/
b10 S
b1100111 4
b1100111 P
b11 T
1!
1&
#111000
0!
0&
#111500
b1110000 >
b1110000 L
b1110000 M
b1110000 .
b1110000 B
b1110000 1
b1110000 U
b1110000 "
b1101111 A
b1101111 H
b1101111 ;
b1101111 4
b1101111 P
b100 T
b11 S
1!
1&
#112000
0!
0&
#112500
b1110001 >
b1110001 L
b1110001 M
b1110001 .
b1110001 B
b1110001 1
b1110001 U
b1110000 A
b1110000 H
b1110000 ;
b1110001 "
b100 S
b1110000 4
b1110000 P
b101 T
1!
1&
#113000
0!
0&
#113500
b1110010 >
b1110010 L
b1110010 M
b1110010 .
b1110010 B
b1110010 1
b1110010 U
b1110010 "
b1110001 A
b1110001 H
b1110001 ;
b110 T
b101 S
b1110001 4
b1110001 P
1!
1&
#114000
0!
0&
#114500
b1110011 >
b1110011 L
b1110011 M
b1110011 .
b1110011 B
b1110011 1
b1110011 U
b1110010 A
b1110010 H
b1110010 ;
b1110011 "
b110 S
b1110010 4
b1110010 P
b111 T
1!
1&
#115000
0!
0&
#115500
b1110011 >
b1110011 L
b1110011 M
0C
b1110100 .
b1110100 B
b1110100 1
b1110100 U
0%
0/
b1110100 "
b1110011 A
b1110011 H
b1110011 ;
b0 T
b111 S
b1110011 4
b1110011 P
1!
1&
#116000
0!
0&
#116500
b1110101 >
b1110101 L
b1110101 M
b1110101 .
b1110101 B
b1110101 1
b1110101 U
1C
b1110101 "
1%
1/
b0 S
b1110011 4
b1110011 P
b1 T
1!
1&
#117000
0!
0&
#117500
b1110110 >
b1110110 L
b1110110 M
b1110110 .
b1110110 B
b1110110 1
b1110110 U
b1110110 "
b1110101 A
b1110101 H
b1110101 ;
b10 T
b1 S
b1110101 4
b1110101 P
1!
1&
#118000
0!
0&
#118500
b1110110 >
b1110110 L
b1110110 M
b1110111 .
b1110111 B
b1110111 1
b1110111 U
0C
b1110110 A
b1110110 H
b1110110 ;
b1110111 "
0%
0/
b10 S
b1110110 4
b1110110 P
b11 T
1!
1&
#119000
0!
0&
#119500
b1111000 .
b1111000 B
b1111000 1
b1111000 U
b1111000 "
b100 T
b11 S
b1110110 4
b1110110 P
1!
1&
#120000
0!
0&
#120500
b1111001 >
b1111001 L
b1111001 M
b1111001 .
b1111001 B
b1111001 1
b1111001 U
1C
b1111001 "
1%
1/
b100 S
b1110110 4
b1110110 P
b101 T
1!
1&
#121000
0!
0&
#121500
b1111010 >
b1111010 L
b1111010 M
b1111010 .
b1111010 B
b1111010 1
b1111010 U
b1111010 "
b1111001 A
b1111001 H
b1111001 ;
b110 T
b101 S
b1111001 4
b1111001 P
1!
1&
#122000
0!
0&
#122500
b1111010 >
b1111010 L
b1111010 M
b1111011 .
b1111011 B
b1111011 1
b1111011 U
0C
b1111010 A
b1111010 H
b1111010 ;
b1111011 "
0%
0/
b110 S
b1111010 4
b1111010 P
b111 T
1!
1&
#123000
0!
0&
#123500
b1111100 >
b1111100 L
b1111100 M
1C
b1111100 .
b1111100 B
b1111100 1
b1111100 U
1%
1/
b1111100 "
b0 T
b111 S
b1111010 4
b1111010 P
1!
1&
#124000
0!
0&
#124500
b1111101 >
b1111101 L
b1111101 M
b1111101 .
b1111101 B
b1111101 1
b1111101 U
b1111100 A
b1111100 H
b1111100 ;
b1111101 "
b0 S
b1111100 4
b1111100 P
b1 T
1!
1&
#125000
0!
0&
