cpu_ctrl/main.vcd
$date
	Mon Apr 29 20:54:21 2019
$end
$version
	Icarus Verilog
$end
$timescale
	1ps
$end
$scope module main $end
$var reg 1 ! clk $end
$var reg 32 " counter [31:0] $end
$var reg 32 # data [31:0] $end
$var reg 32 $ r_addr [31:0] $end
$var reg 32 % r_calc_complete [31:0] $end
$var reg 32 & r_empty [31:0] $end
$var reg 32 ' r_inst [31:0] $end
$var reg 32 ( r_inst_valid [31:0] $end
$var reg 32 ) r_read [31:0] $end
$var reg 32 * r_read_mem_complete [31:0] $end
$var reg 32 + r_write [31:0] $end
$var reg 32 , r_write_mem_complete [31:0] $end
$var reg 32 - r_writedata [31:0] $end
$var reg 1 . rst $end
$var reg 1 / valid $end
$scope module uCpu_ctrl $end
$var wire 1 0 clk $end
$var wire 2 1 i_addr [1:0] $end
$var wire 1 2 i_calc_complete $end
$var wire 1 3 i_empty $end
$var wire 32 4 i_inst [31:0] $end
$var wire 1 5 i_inst_valid $end
$var wire 1 6 i_read $end
$var wire 1 7 i_read_mem_complete $end
$var wire 1 8 i_write $end
$var wire 1 9 i_write_mem_complete $end
$var wire 32 : i_writedata [31:0] $end
$var wire 1 ; o_calc_start $end
$var wire 1 < o_inst_complete $end
$var wire 32 = o_readdata [31:0] $end
$var wire 1 > o_readdatavalid $end
$var wire 1 ? rst $end
$var wire 1 @ w_calc $end
$var wire 1 A w_calc_to_waitToCalc $end
$var wire 1 B w_fetch_to_waitToFetch $end
$var wire 1 C w_jump $end
$var wire 1 D w_lwst $end
$var wire 4 E w_op [3:0] $end
$var wire 1 F w_ready_to_fetch $end
$var wire 2 G w_type [1:0] $end
$var wire 1 H w_waitToCalc_to_calc $end
$var wire 1 I w_waitToCalc_to_fetch $end
$var wire 1 J w_waitToCalc_to_waitToLwst $end
$var wire 1 K w_waitToFetch_to_calc $end
$var wire 1 L w_waitToFetch_to_fetch $end
$var wire 1 M w_waitToFetch_to_waitToLwst $end
$var wire 1 N w_waitToLwst_to_calc $end
$var wire 1 O w_waitToLwst_to_fetch $end
$var wire 1 P w_waitToLwst_to_waitToLwst $end
$var reg 32 Q r_boot [31:0] $end
$var reg 1 R r_calc_complete_next $end
$var reg 1 S r_read_mem_complete_next $end
$var reg 32 T r_readdata [31:0] $end
$var reg 1 U r_readdatavalid $end
$var reg 4 V r_state [3:0] $end
$var reg 1 W r_write_mem_complete_next $end
$upscope $end
$upscope $end
$enddefinitions $end
#0
$dumpvars
xW
bx V
xU
bx T
xS
xR
bx Q
xP
xO
xN
xM
xL
xK
xJ
xI
xH
bx G
xF
bx E
xD
xC
1B
1A
x@
1?
x>
bx =
x<
x;
bx :
x9
x8
x7
x6
x5
bx 4
x3
x2
bx 1
00
0/
1.
bx -
bx ,
bx +
bx *
bx )
bx (
bx '
bx &
bx %
bx $
b0 #
b0 "
0!
$end
#500
0L
0K
0M
0C
0@
0D
0P
0N
0O
0<
0H
0J
0I
0F
0;
08
06
b0 1
02
07
09
05
b0 G
b0 E
03
b0 T
b0 =
0U
0>
b0 Q
b0 V
0W
0S
0R
b1 #
b1 "
b0 +
b0 )
b0 $
b0 -
b0 :
b0 %
b0 *
b0 ,
b0 (
b0 '
b0 4
b0 &
1!
10
#1000
0!
00
#1500
b10 "
1/
b10 #
1!
10
#2000
0!
00
#2500
b11 #
b11 "
1!
10
#3000
0!
00
#3500
b100 "
b100 #
1!
10
#4000
0!
00
0.
0?
#4500
13
b101 #
b101 "
b1 &
1!
10
#5000
0!
00
#5500
b110 "
b110 #
1!
10
#6000
0!
00
#6500
b111 #
b111 "
1!
10
#7000
0!
00
#7500
b1000 "
0/
b1000 #
1!
10
#8000
0!
00
#8500
b1001 #
1/
b1001 "
1!
10
#9000
0!
00
#9500
b1010 "
b1010 #
1!
10
#10000
0!
00
#10500
b1011 #
0/
b1011 "
1!
10
#11000
0!
00
#11500
b1100 "
1/
b1100 #
1!
10
#12000
0!
00
#12500
b1101 #
b1101 "
1!
10
#13000
0!
00
#13500
b1110 "
0/
b1110 #
1!
10
#14000
0!
00
#14500
b1111 #
1/
b1111 "
1!
10
#15000
0!
00
#15500
b10000 "
0/
b10000 #
1!
10
#16000
0!
00
#16500
b10001 #
1/
b10001 "
1!
10
#17000
0!
00
#17500
b10010 "
0/
b10010 #
1!
10
#18000
0!
00
#18500
18
b1 1
b10011 #
1/
b10011 "
b1 +
b1 $
b1 -
b1 :
1!
10
#19000
0!
00
#19500
08
b0 1
1F
b0 +
b0 $
b0 -
b0 :
b10100 "
b10100 #
b1 Q
1!
10
#20000
0!
00
#20500
b1 V
b10101 #
0/
b10101 "
1!
10
#21000
0!
00
#21500
b10110 "
1/
b10110 #
b10 V
b1 T
b1 =
1!
10
#22000
0!
00
#22500
b10 T
b10 =
b10111 #
0/
b10111 "
1!
10
#23000
0!
00
#23500
b11000 "
b11000 #
1!
10
#24000
0!
00
#24500
b11001 #
b11001 "
1!
10
#25000
0!
00
#25500
0K
1M
0@
1D
15
b10 G
b1000 E
03
b1 (
b10100000000000000000000000000000 '
b10100000000000000000000000000000 4
b0 &
b11010 "
1/
b11010 #
1!
10
#26000
0!
00
#26500
b101 V
b11011 #
0/
b11011 "
1!
10
#27000
0!
00
#27500
1<
19
b1 ,
b11100 "
1/
b11100 #
b101 T
b101 =
1!
10
#28000
0!
00
#28500
0<
1P
09
1W
b11101 #
b11101 "
b0 ,
1!
10
#29000
0!
00
#29500
0P
b11110 "
b11110 #
0W
1!
10
#30000
0!
00
#30500
b11111 #
b11111 "
1!
10
#31000
0!
00
#31500
b100000 "
0/
b100000 #
1!
10
#32000
0!
00
#32500
0M
0D
05
b0 G
b0 E
b100001 #
b100001 "
b0 (
b0 '
b0 4
1!
10
#33000
0!
00
#33500
b100010 "
b100010 #
1!
10
#34000
0!
00
#34500
b100011 #
b100011 "
1!
10
#35000
0!
00
#35500
b100100 "
1/
b100100 #
1!
10
#36000
0!
00
#36500
b100101 #
0/
b100101 "
1!
10
#37000
0!
00
#37500
b100110 "
1/
b100110 #
1!
10
#38000
0!
00
#38500
b100111 #
b100111 "
1!
10
#39000
0!
00
#39500
b101000 "
b101000 #
1!
10
#40000
0!
00
#40500
b101001 #
b101001 "
1!
10
#41000
0!
00
#41500
b101010 "
b101010 #
1!
10
#42000
0!
00
#42500
b101011 #
0/
b101011 "
1!
10
#43000
0!
00
#43500
b101100 "
b101100 #
1!
10
#44000
0!
00
#44500
b101101 #
1/
b101101 "
1!
10
#45000
0!
00
#45500
b101110 "
b101110 #
1!
10
#46000
0!
00
#46500
b101111 #
b101111 "
1!
10
#47000
0!
00
#47500
b110000 "
0/
b110000 #
1!
10
#48000
0!
00
#48500
b110001 #
b110001 "
1!
10
#49000
0!
00
#49500
b110010 "
b110010 #
1!
10
#50000
0!
00
#50500
b110011 #
b110011 "
1!
10
#51000
0!
00
#51500
b110100 "
b110100 #
1!
10
#52000
0!
00
#52500
b110101 #
1/
b110101 "
1!
10
#53000
0!
00
#53500
b110110 "
0/
b110110 #
1!
10
#54000
0!
00
#54500
b110111 #
b110111 "
1!
10
#55000
0!
00
#55500
b111000 "
1/
b111000 #
1!
10
#56000
0!
00
#56500
b111001 #
b111001 "
1!
10
#57000
0!
00
#57500
b111010 "
0/
b111010 #
1!
10
#58000
0!
00
#58500
b111011 #
b111011 "
1!
10
#59000
0!
00
#59500
b111100 "
b111100 #
1!
10
#60000
0!
00
#60500
b111101 #
b111101 "
1!
10
#61000
0!
00
#61500
b111110 "
b111110 #
1!
10
#62000
0!
00
#62500
b111111 #
1/
b111111 "
1!
10
#63000
0!
00
#63500
b1000000 "
b1000000 #
1!
10
#64000
0!
00
#64500
b1000001 #
b1000001 "
1!
10
#65000
0!
00
#65500
b1000010 "
b1000010 #
1!
10
#66000
0!
00
#66500
b1000011 #
b1000011 "
1!
10
#67000
0!
00
#67500
b1000100 "
0/
b1000100 #
1!
10
#68000
0!
00
#68500
b1000101 #
b1000101 "
1!
10
#69000
0!
00
#69500
b1000110 "
1/
b1000110 #
1!
10
#70000
0!
00
#70500
b1000111 #
b1000111 "
1!
10
#71000
0!
00
#71500
b1001000 "
b1001000 #
1!
10
#72000
0!
00
#72500
b1001001 #
0/
b1001001 "
1!
10
#73000
0!
00
#73500
b1001010 "
b1001010 #
1!
10
#74000
0!
00
#74500
b1001011 #
1/
b1001011 "
1!
10
#75000
0!
00
#75500
b1001100 "
b1001100 #
1!
10
#76000
0!
00
#76500
b1001101 #
0/
b1001101 "
1!
10
#77000
0!
00
#77500
b1001110 "
1/
b1001110 #
1!
10
#78000
0!
00
#78500
b1001111 #
b1001111 "
1!
10
#79000
0!
00
#79500
b1010000 "
0/
b1010000 #
1!
10
#80000
0!
00
#80500
b1010001 #
1/
b1010001 "
1!
10
#81000
0!
00
#81500
b1010010 "
b1010010 #
1!
10
#82000
0!
00
#82500
b1010011 #
b1010011 "
1!
10
#83000
0!
00
#83500
b1010100 "
0/
b1010100 #
1!
10
#84000
0!
00
#84500
b1010101 #
1/
b1010101 "
1!
10
#85000
0!
00
#85500
b1010110 "
b1010110 #
1!
10
#86000
0!
00
#86500
b1010111 #
0/
b1010111 "
1!
10
#87000
0!
00
#87500
b1011000 "
b1011000 #
1!
10
#88000
0!
00
#88500
b1011001 #
b1011001 "
1!
10
#89000
0!
00
#89500
b1011010 "
b1011010 #
1!
10
#90000
0!
00
#90500
b1011011 #
1/
b1011011 "
1!
10
#91000
0!
00
#91500
b1011100 "
b1011100 #
1!
10
#92000
0!
00
#92500
b1011101 #
0/
b1011101 "
1!
10
#93000
0!
00
#93500
b1011110 "
b1011110 #
1!
10
#94000
0!
00
#94500
b1011111 #
1/
b1011111 "
1!
10
#95000
0!
00
#95500
b1100000 "
b1100000 #
1!
10
#96000
0!
00
#96500
b1100001 #
b1100001 "
1!
10
#97000
0!
00
#97500
b1100010 "
b1100010 #
1!
10
#98000
0!
00
#98500
b1100011 #
b1100011 "
1!
10
#99000
0!
00
#99500
b1100100 "
0/
b1100100 #
1!
10
#100000
0!
00
#100500
b1100101 #
1/
b1100101 "
1!
10
#101000
0!
00
#101500
b1100110 "
b1100110 #
1!
10
#102000
0!
00
#102500
b1100111 #
b1100111 "
1!
10
#103000
0!
00
#103500
b1101000 "
0/
b1101000 #
1!
10
#104000
0!
00
#104500
b1101001 #
b1101001 "
1!
10
#105000
0!
00
#105500
b1101010 "
b1101010 #
1!
10
#106000
0!
00
#106500
b1101011 #
b1101011 "
1!
10
#107000
0!
00
#107500
b1101100 "
b1101100 #
1!
10
#108000
0!
00
#108500
b1101101 #
b1101101 "
1!
10
#109000
0!
00
#109500
b1101110 "
b1101110 #
1!
10
#110000
0!
00
#110500
b1101111 #
1/
b1101111 "
1!
10
#111000
0!
00
#111500
b1110000 "
b1110000 #
1!
10
#112000
0!
00
#112500
b1110001 #
b1110001 "
1!
10
#113000
0!
00
#113500
b1110010 "
b1110010 #
1!
10
#114000
0!
00
#114500
b1110011 #
b1110011 "
1!
10
#115000
0!
00
#115500
b1110100 "
0/
b1110100 #
1!
10
#116000
0!
00
#116500
b1110101 #
1/
b1110101 "
1!
10
#117000
0!
00
#117500
b1110110 "
b1110110 #
1!
10
#118000
0!
00
#118500
b1110111 #
0/
b1110111 "
1!
10
#119000
0!
00
#119500
b1111000 "
b1111000 #
1!
10
#120000
0!
00
#120500
b1111001 #
1/
b1111001 "
1!
10
#121000
0!
00
#121500
b1111010 "
b1111010 #
1!
10
#122000
0!
00
#122500
b1111011 #
0/
b1111011 "
1!
10
#123000
0!
00
#123500
b1111100 "
1/
b1111100 #
1!
10
#124000
0!
00
#124500
b1111101 #
b1111101 "
1!
10
#125000
0!
00
#125500
b1111110 "
b1111110 #
1!
10
#126000
0!
00
#126500
b1111111 #
b1111111 "
1!
10
#127000
0!
00
#127500
b10000000 "
0/
b10000000 #
1!
10
#128000
0!
00
#128500
b10000001 #
b10000001 "
1!
10
#129000
0!
00
#129500
b10000010 "
b10000010 #
1!
10
#130000
0!
00
#130500
b10000011 #
1/
b10000011 "
1!
10
#131000
0!
00
#131500
b10000100 "
0/
b10000100 #
1!
10
#132000
0!
00
#132500
b10000101 #
b10000101 "
1!
10
#133000
0!
00
#133500
b10000110 "
b10000110 #
1!
10
#134000
0!
00
#134500
b10000111 #
1/
b10000111 "
1!
10
#135000
0!
00
#135500
b10001000 "
b10001000 #
1!
10
#136000
0!
00
#136500
b10001001 #
0/
b10001001 "
1!
10
#137000
0!
00
#137500
b10001010 "
b10001010 #
1!
10
#138000
0!
00
#138500
b10001011 #
1/
b10001011 "
1!
10
#139000
0!
00
#139500
b10001100 "
0/
b10001100 #
1!
10
#140000
0!
00
#140500
b10001101 #
b10001101 "
1!
10
#141000
0!
00
#141500
b10001110 "
b10001110 #
1!
10
#142000
0!
00
#142500
b10001111 #
1/
b10001111 "
1!
10
#143000
0!
00
#143500
b10010000 "
0/
b10010000 #
1!
10
#144000
0!
00
#144500
b10010001 #
b10010001 "
1!
10
#145000
0!
00
#145500
b10010010 "
1/
b10010010 #
1!
10
#146000
0!
00
#146500
b10010011 #
0/
b10010011 "
1!
10
#147000
0!
00
#147500
b10010100 "
1/
b10010100 #
1!
10
#148000
0!
00
#148500
b10010101 #
b10010101 "
1!
10
#149000
0!
00
#149500
b10010110 "
b10010110 #
1!
10
#150000
0!
00
#150500
b10010111 #
b10010111 "
1!
10
#151000
0!
00
#151500
b10011000 "
b10011000 #
1!
10
#152000
0!
00
#152500
b10011001 #
0/
b10011001 "
1!
10
#153000
0!
00
#153500
b10011010 "
b10011010 #
1!
10
#154000
0!
00
#154500
b10011011 #
b10011011 "
1!
10
#155000
0!
00
#155500
b10011100 "
1/
b10011100 #
1!
10
#156000
0!
00
#156500
b10011101 #
0/
b10011101 "
1!
10
#157000
0!
00
#157500
b10011110 "
b10011110 #
1!
10
#158000
0!
00
#158500
b10011111 #
1/
b10011111 "
1!
10
#159000
0!
00
#159500
b10100000 "
b10100000 #
1!
10
#160000
0!
00
#160500
b10100001 #
0/
b10100001 "
1!
10
#161000
0!
00
#161500
b10100010 "
b10100010 #
1!
10
#162000
0!
00
#162500
b10100011 #
b10100011 "
1!
10
#163000
0!
00
#163500
b10100100 "
1/
b10100100 #
1!
10
#164000
0!
00
#164500
b10100101 #
b10100101 "
1!
10
#165000
0!
00
#165500
b10100110 "
0/
b10100110 #
1!
10
#166000
0!
00
#166500
b10100111 #
b10100111 "
1!
10
#167000
0!
00
#167500
b10101000 "
b10101000 #
1!
10
#168000
0!
00
#168500
b10101001 #
1/
b10101001 "
1!
10
#169000
0!
00
#169500
b10101010 "
b10101010 #
1!
10
#170000
0!
00
#170500
b10101011 #
0/
b10101011 "
1!
10
#171000
0!
00
#171500
b10101100 "
b10101100 #
1!
10
#172000
0!
00
#172500
b10101101 #
b10101101 "
1!
10
#173000
0!
00
#173500
b10101110 "
1/
b10101110 #
1!
10
#174000
0!
00
#174500
b10101111 #
0/
b10101111 "
1!
10
#175000
0!
00
#175500
b10110000 "
b10110000 #
1!
10
#176000
0!
00
#176500
b10110001 #
1/
b10110001 "
1!
10
#177000
0!
00
#177500
b10110010 "
0/
b10110010 #
1!
10
#178000
0!
00
#178500
b10110011 #
b10110011 "
1!
10
#179000
0!
00
#179500
b10110100 "
b10110100 #
1!
10
#180000
0!
00
#180500
b10110101 #
1/
b10110101 "
1!
10
#181000
0!
00
#181500
b10110110 "
0/
b10110110 #
1!
10
#182000
0!
00
#182500
b10110111 #
1/
b10110111 "
1!
10
#183000
0!
00
#183500
b10111000 "
b10111000 #
1!
10
#184000
0!
00
#184500
b10111001 #
0/
b10111001 "
1!
10
#185000
0!
00
#185500
b10111010 "
b10111010 #
1!
10
#186000
0!
00
#186500
b10111011 #
b10111011 "
1!
10
#187000
0!
00
#187500
b10111100 "
b10111100 #
1!
10
#188000
0!
00
#188500
b10111101 #
1/
b10111101 "
1!
10
#189000
0!
00
#189500
b10111110 "
0/
b10111110 #
1!
10
#190000
0!
00
#190500
b10111111 #
b10111111 "
1!
10
#191000
0!
00
#191500
b11000000 "
b11000000 #
1!
10
#192000
0!
00
#192500
b11000001 #
b11000001 "
1!
10
#193000
0!
00
#193500
b11000010 "
1/
b11000010 #
1!
10
#194000
0!
00
#194500
b11000011 #
b11000011 "
1!
10
#195000
0!
00
#195500
b11000100 "
b11000100 #
1!
10
#196000
0!
00
#196500
b11000101 #
0/
b11000101 "
1!
10
#197000
0!
00
#197500
b11000110 "
1/
b11000110 #
1!
10
#198000
0!
00
#198500
b11000111 #
b11000111 "
1!
10
#199000
0!
00
#199500
b11001000 "
b11001000 #
1!
10
#200000
0!
00
#200500
b11001001 #
0/
b11001001 "
1!
10
#201000
0!
00
#201500
b11001010 "
b11001010 #
1!
10
#202000
0!
00
#202500
b11001011 #
1/
b11001011 "
1!
10
#203000
0!
00
#203500
b11001100 "
b11001100 #
1!
10
#204000
0!
00
#204500
b11001101 #
b11001101 "
1!
10
#205000
0!
00
#205500
b11001110 "
b11001110 #
1!
10
#206000
0!
00
#206500
b11001111 #
b11001111 "
1!
10
#207000
0!
00
#207500
b11010000 "
0/
b11010000 #
1!
10
#208000
0!
00
#208500
b11010001 #
1/
b11010001 "
1!
10
#209000
0!
00
#209500
b11010010 "
b11010010 #
1!
10
#210000
0!
00
#210500
b11010011 #
0/
b11010011 "
1!
10
#211000
0!
00
#211500
b11010100 "
b11010100 #
1!
10
#212000
0!
00
#212500
b11010101 #
b11010101 "
1!
10
#213000
0!
00
#213500
b11010110 "
b11010110 #
1!
10
#214000
0!
00
#214500
b11010111 #
1/
b11010111 "
1!
10
#215000
0!
00
#215500
xL
xK
xM
xC
x@
xD
x<
x8
x6
bx 1
x2
x7
x9
x5
bx G
bx E
x3
bx +
bx )
bx $
bx -
bx :
bx %
bx *
bx ,
bx (
bx '
bx 4
bx &
b11011000 "
b11011000 #
1!
10
#216000
0!
00
#216500
xP
xN
xO
xH
xJ
xI
xU
x>
xW
xS
xR
b11011001 #
0/
b11011001 "
1!
10
#217000
0!
00
#217500
b11011010 "
b11011010 #
1!
10
#218000
0!
00
#218500
b11011011 #
1/
b11011011 "
1!
10
#219000
0!
00
#219500
b11011100 "
0/
b11011100 #
1!
10
#220000
0!
00
#220500
b11011101 #
b11011101 "
1!
10
#221000
0!
00
#221500
b11011110 "
1/
b11011110 #
1!
10
#222000
0!
00
#222500
b11011111 #
0/
b11011111 "
1!
10
#223000
0!
00
#223500
b11100000 "
b11100000 #
1!
10
#224000
0!
00
#224500
b11100001 #
1/
b11100001 "
1!
10
#225000
0!
00
#225500
b11100010 "
0/
b11100010 #
1!
10
#226000
0!
00
#226500
b11100011 #
b11100011 "
1!
10
#227000
0!
00
#227500
b11100100 "
1/
b11100100 #
1!
10
#228000
0!
00
#228500
b11100101 #
b11100101 "
1!
10
#229000
0!
00
#229500
b11100110 "
b11100110 #
1!
10
#230000
0!
00
#230500
b11100111 #
0/
b11100111 "
1!
10
#231000
0!
00
#231500
b11101000 "
b11101000 #
1!
10
#232000
0!
00
#232500
b11101001 #
b11101001 "
1!
10
#233000
0!
00
#233500
b11101010 "
1/
b11101010 #
1!
10
#234000
0!
00
#234500
b11101011 #
0/
b11101011 "
1!
10
#235000
0!
00
#235500
b11101100 "
b11101100 #
1!
10
#236000
0!
00
#236500
b11101101 #
1/
b11101101 "
1!
10
#237000
0!
00
#237500
b11101110 "
0/
b11101110 #
1!
10
#238000
0!
00
#238500
b11101111 #
b11101111 "
1!
10
#239000
0!
00
#239500
b11110000 "
b11110000 #
1!
10
#240000
0!
00
#240500
b11110001 #
b11110001 "
1!
10
#241000
0!
00
#241500
b11110010 "
1/
b11110010 #
1!
10
#242000
0!
00
#242500
b11110011 #
0/
b11110011 "
1!
10
#243000
0!
00
#243500
b11110100 "
b11110100 #
1!
10
#244000
0!
00
#244500
b11110101 #
b11110101 "
1!
10
#245000
0!
00
#245500
b11110110 "
1/
b11110110 #
1!
10
#246000
0!
00
#246500
b11110111 #
b11110111 "
1!
10
#247000
0!
00
#247500
b11111000 "
0/
b11111000 #
1!
10
#248000
0!
00
#248500
b11111001 #
1/
b11111001 "
1!
10
#249000
0!
00
#249500
b11111010 "
b11111010 #
1!
10
#250000
0!
00
#250500
b11111011 #
b11111011 "
1!
10
#251000
0!
00
#251500
b11111100 "
b11111100 #
1!
10
#252000
0!
00
#252500
b11111101 #
0/
b11111101 "
1!
10
#253000
0!
00
#253500
b11111110 "
1/
b11111110 #
1!
10
#254000
0!
00
#254500
b11111111 #
b11111111 "
1!
10
#255000
0!
00
#255500
b100000000 "
b100000000 #
1!
10
#256000
0!
00
#256500
b100000001 #
0/
b100000001 "
1!
10
#257000
0!
00
#257500
b100000010 "
b100000010 #
1!
10
#258000
0!
00
#258500
b100000011 #
1/
b100000011 "
1!
10
#259000
0!
00
#259500
b100000100 "
0/
b100000100 #
1!
10
#260000
0!
00
#260500
b100000101 #
b100000101 "
1!
10
#261000
0!
00
#261500
b100000110 "
1/
b100000110 #
1!
10
#262000
0!
00
#262500
b100000111 #
b100000111 "
1!
10
#263000
0!
00
#263500
b100001000 "
0/
b100001000 #
1!
10
#264000
0!
00
#264500
b100001001 #
b100001001 "
1!
10
#265000
0!
00
#265500
b100001010 "
1/
b100001010 #
1!
10
#266000
0!
00
#266500
b100001011 #
0/
b100001011 "
1!
10
#267000
0!
00
#267500
b100001100 "
b100001100 #
1!
10
#268000
0!
00
#268500
b100001101 #
1/
b100001101 "
1!
10
#269000
0!
00
#269500
b100001110 "
0/
b100001110 #
1!
10
#270000
0!
00
#270500
b100001111 #
1/
b100001111 "
1!
10
#271000
0!
00
#271500
b100010000 "
b100010000 #
1!
10
#272000
0!
00
#272500
b100010001 #
0/
b100010001 "
1!
10
#273000
0!
00
#273500
b100010010 "
1/
b100010010 #
1!
10
#274000
0!
00
#274500
b100010011 #
0/
b100010011 "
1!
10
#275000
0!
00
#275500
b100010100 "
1/
b100010100 #
1!
10
#276000
0!
00
#276500
b100010101 #
0/
b100010101 "
1!
10
#277000
0!
00
#277500
b100010110 "
b100010110 #
1!
10
#278000
0!
00
#278500
b100010111 #
1/
b100010111 "
1!
10
#279000
0!
00
#279500
b100011000 "
0/
b100011000 #
1!
10
#280000
0!
00
#280500
b100011001 #
b100011001 "
1!
10
#281000
0!
00
#281500
b100011010 "
b100011010 #
1!
10
#282000
0!
00
#282500
b100011011 #
1/
b100011011 "
1!
10
#283000
0!
00
#283500
b100011100 "
b100011100 #
1!
10
#284000
0!
00
#284500
b100011101 #
b100011101 "
1!
10
#285000
0!
00
#285500
b100011110 "
b100011110 #
1!
10
#286000
0!
00
#286500
b100011111 #
b100011111 "
1!
10
#287000
0!
00
#287500
b100100000 "
0/
b100100000 #
1!
10
#288000
0!
00
#288500
b100100001 #
1/
b100100001 "
1!
10
#289000
0!
00
#289500
b100100010 "
b100100010 #
1!
10
#290000
0!
00
#290500
b100100011 #
b100100011 "
1!
10
#291000
0!
00
#291500
b100100100 "
0/
b100100100 #
1!
10
#292000
0!
00
#292500
b100100101 #
b100100101 "
1!
10
#293000
0!
00
#293500
b100100110 "
b100100110 #
1!
10
#294000
0!
00
#294500
b100100111 #
b100100111 "
1!
10
#295000
0!
00
#295500
b100101000 "
b100101000 #
1!
10
#296000
0!
00
#296500
b100101001 #
b100101001 "
1!
10
#297000
0!
00
#297500
b100101010 "
1/
b100101010 #
1!
10
#298000
0!
00
#298500
b100101011 #
b100101011 "
1!
10
#299000
0!
00
#299500
b100101100 "
b100101100 #
1!
10
#300000
0!
00
#300500
b100101101 #
b100101101 "
1!
10
#301000
0!
00
#301500
b100101110 "
b100101110 #
1!
10
#302000
0!
00
#302500
b100101111 #
b100101111 "
1!
10
#303000
0!
00
#303500
b100110000 "
b100110000 #
1!
10
#304000
0!
00
#304500
b100110001 #
0/
b100110001 "
1!
10
#305000
0!
00
#305500
b100110010 "
1/
b100110010 #
1!
10
#306000
0!
00
#306500
b100110011 #
b100110011 "
1!
10
#307000
0!
00
#307500
b100110100 "
b100110100 #
1!
10
#308000
0!
00
#308500
b100110101 #
b100110101 "
1!
10
#309000
0!
00
#309500
b100110110 "
b100110110 #
1!
10
#310000
0!
00
#310500
b100110111 #
b100110111 "
1!
10
#311000
0!
00
#311500
b100111000 "
b100111000 #
1!
10
#312000
0!
00
#312500
b100111001 #
b100111001 "
1!
10
#313000
0!
00
#313500
b100111010 "
0/
b100111010 #
1!
10
#314000
0!
00
#314500
b100111011 #
b100111011 "
1!
10
#315000
0!
00
#315500
b100111100 "
1/
b100111100 #
1!
10
#316000
0!
00
#316500
b100111101 #
b100111101 "
1!
10
#317000
0!
00
#317500
b100111110 "
0/
b100111110 #
1!
10
#318000
0!
00
#318500
b100111111 #
b100111111 "
1!
10
#319000
0!
00
#319500
b101000000 "
b101000000 #
1!
10
#320000
0!
00
#320500
b101000001 #
b101000001 "
1!
10
#321000
0!
00
#321500
b101000010 "
1/
b101000010 #
1!
10
#322000
0!
00
#322500
b101000011 #
0/
b101000011 "
1!
10
#323000
0!
00
#323500
b101000100 "
b101000100 #
1!
10
#324000
0!
00
#324500
b101000101 #
b101000101 "
1!
10
#325000
0!
00
#325500
b101000110 "
b101000110 #
1!
10
#326000
0!
00
#326500
b101000111 #
b101000111 "
1!
10
#327000
0!
00
#327500
b101001000 "
b101001000 #
1!
10
#328000
0!
00
#328500
b101001001 #
1/
b101001001 "
1!
10
#329000
0!
00
#329500
b101001010 "
0/
b101001010 #
1!
10
#330000
0!
00
#330500
b101001011 #
b101001011 "
1!
10
#331000
0!
00
#331500
b101001100 "
1/
b101001100 #
1!
10
#332000
0!
00
#332500
b101001101 #
0/
b101001101 "
1!
10
#333000
0!
00
#333500
b101001110 "
b101001110 #
1!
10
#334000
0!
00
#334500
b101001111 #
b101001111 "
1!
10
#335000
0!
00
#335500
b101010000 "
b101010000 #
1!
10
#336000
0!
00
#336500
b101010001 #
1/
b101010001 "
1!
10
#337000
0!
00
#337500
b101010010 "
b101010010 #
1!
10
#338000
0!
00
#338500
b101010011 #
b101010011 "
1!
10
#339000
0!
00
#339500
b101010100 "
b101010100 #
1!
10
#340000
0!
00
#340500
b101010101 #
b101010101 "
1!
10
#341000
0!
00
#341500
b101010110 "
0/
b101010110 #
1!
10
#342000
0!
00
#342500
b101010111 #
1/
b101010111 "
1!
10
#343000
0!
00
#343500
b101011000 "
b101011000 #
1!
10
#344000
0!
00
#344500
b101011001 #
b101011001 "
1!
10
#345000
0!
00
#345500
b101011010 "
0/
b101011010 #
1!
10
#346000
0!
00
#346500
b101011011 #
1/
b101011011 "
1!
10
#347000
0!
00
#347500
b101011100 "
0/
b101011100 #
1!
10
#348000
0!
00
#348500
b101011101 #
b101011101 "
1!
10
#349000
0!
00
#349500
b101011110 "
1/
b101011110 #
1!
10
#350000
0!
00
#350500
b101011111 #
b101011111 "
1!
10
#351000
0!
00
#351500
b101100000 "
0/
b101100000 #
1!
10
#352000
0!
00
#352500
b101100001 #
1/
b101100001 "
1!
10
#353000
0!
00
#353500
b101100010 "
0/
b101100010 #
1!
10
#354000
0!
00
#354500
b101100011 #
b101100011 "
1!
10
#355000
0!
00
#355500
b101100100 "
1/
b101100100 #
1!
10
#356000
0!
00
#356500
b101100101 #
0/
b101100101 "
1!
10
#357000
0!
00
#357500
b101100110 "
b101100110 #
1!
10
#358000
0!
00
#358500
b101100111 #
b101100111 "
1!
10
#359000
0!
00
#359500
b101101000 "
b101101000 #
1!
10
#360000
0!
00
#360500
b101101001 #
1/
b101101001 "
1!
10
#361000
0!
00
#361500
b101101010 "
b101101010 #
1!
10
#362000
0!
00
#362500
b101101011 #
b101101011 "
1!
10
#363000
0!
00
#363500
b101101100 "
b101101100 #
1!
10
#364000
0!
00
#364500
b101101101 #
0/
b101101101 "
1!
10
#365000
0!
00
#365500
b101101110 "
1/
b101101110 #
1!
10
#366000
0!
00
#366500
b101101111 #
b101101111 "
1!
10
#367000
0!
00
#367500
b101110000 "
b101110000 #
1!
10
#368000
0!
00
#368500
b101110001 #
b101110001 "
1!
10
#369000
0!
00
#369500
b101110010 "
b101110010 #
1!
10
#370000
0!
00
#370500
b101110011 #
b101110011 "
1!
10
#371000
0!
00
#371500
b101110100 "
b101110100 #
1!
10
#372000
0!
00
#372500
b101110101 #
0/
b101110101 "
1!
10
#373000
0!
00
#373500
b101110110 "
1/
b101110110 #
1!
10
#374000
0!
00
#374500
b101110111 #
0/
b101110111 "
1!
10
#375000
0!
00
#375500
b101111000 "
1/
b101111000 #
1!
10
#376000
0!
00
#376500
b101111001 #
0/
b101111001 "
1!
10
#377000
0!
00
#377500
b101111010 "
b101111010 #
1!
10
#378000
0!
00
#378500
b101111011 #
1/
b101111011 "
1!
10
#379000
0!
00
#379500
b101111100 "
0/
b101111100 #
1!
10
#380000
0!
00
#380500
b101111101 #
b101111101 "
1!
10
#381000
0!
00
#381500
b101111110 "
b101111110 #
1!
10
#382000
0!
00
#382500
b101111111 #
b101111111 "
1!
10
#383000
0!
00
#383500
b110000000 "
b110000000 #
1!
10
#384000
0!
00
#384500
b110000001 #
1/
b110000001 "
1!
10
#385000
0!
00
#385500
b110000010 "
0/
b110000010 #
1!
10
#386000
0!
00
#386500
b110000011 #
b110000011 "
1!
10
#387000
0!
00
#387500
b110000100 "
b110000100 #
1!
10
#388000
0!
00
#388500
b110000101 #
b110000101 "
1!
10
#389000
0!
00
#389500
b110000110 "
b110000110 #
1!
10
#390000
0!
00
#390500
b110000111 #
b110000111 "
1!
10
#391000
0!
00
#391500
b110001000 "
1/
b110001000 #
1!
10
#392000
0!
00
#392500
b110001001 #
0/
b110001001 "
1!
10
#393000
0!
00
#393500
b110001010 "
1/
b110001010 #
1!
10
#394000
0!
00
