older/inst_fetch_ctrl/main.vcd
$date
	Sun Mar 24 02:31:58 2019
$end
$version
	Icarus Verilog
$end
$timescale
	1ps
$end
$scope module main $end
$var reg 1 ! clk $end
$var reg 32 " data [31:0] $end
$var reg 1 # rst $end
$var reg 1 $ valid $end
$var reg 4 % valid4 [3:0] $end
$scope module uInst_fetch_ctrl $end
$var wire 1 & clk $end
$var wire 1 ' i_inst_complete $end
$var wire 18 ( i_j_addr [17:0] $end
$var wire 1 ) i_j_valid $end
$var wire 18 * i_jal_addr [17:0] $end
$var wire 1 + i_jal_valid $end
$var wire 18 , i_jr_addr [17:0] $end
$var wire 1 - i_jr_valid $end
$var wire 32 . i_readdata [31:0] $end
$var wire 1 / i_readdatavalid $end
$var wire 1 0 i_waitrequest $end
$var wire 18 1 o_addr [17:0] $end
$var wire 32 2 o_burstcount [31:0] $end
$var wire 32 3 o_inst [31:0] $end
$var wire 1 4 o_inst_empty $end
$var wire 1 5 o_inst_valid $end
$var wire 1 6 o_read $end
$var wire 18 7 o_ret_addr [17:0] $end
$var wire 1 8 o_ret_addr_valid $end
$var wire 1 9 o_rst_inst_fifo $end
$var wire 1 : rst $end
$var wire 18 ; w_addr [17:0] $end
$var wire 1 < w_addr_valid $end
$var wire 1 = w_inst_empty $end
$var wire 1 > w_onehot_sender_out $end
$var reg 32 ? r_inst_counter [31:0] $end
$var reg 18 @ r_program_counter [17:0] $end
$scope module uArb $end
$var wire 1 & clk $end
$var wire 18 A iSnk0Data [17:0] $end
$var wire 1 - iSnk0Valid $end
$var wire 18 B iSnk1Data [17:0] $end
$var wire 1 ) iSnk1Valid $end
$var wire 18 C iSnk2Data [17:0] $end
$var wire 1 + iSnk2Valid $end
$var wire 18 D oSrc0Data [17:0] $end
$var wire 1 < oSrc0Valid $end
$var wire 1 : rst $end
$upscope $end
$scope module uReadinst $end
$var wire 1 & clk $end
$var wire 18 E i_snk_data [17:0] $end
$var wire 1 > i_snk_valid $end
$var wire 1 F i_src_ready $end
$var wire 1 G o_snk_ready $end
$var wire 18 H o_src_data [17:0] $end
$var wire 1 6 o_src_valid $end
$var wire 1 : rst $end
$var wire 1 I w_empty $end
$var wire 1 J w_full $end
$var reg 3 K r_ptr [2:0] $end
$var reg 3 L w_ptr [2:0] $end
$upscope $end
$scope module uOnehot_sender $end
$var wire 1 & clk $end
$var wire 1 = in $end
$var wire 1 > out $end
$var wire 1 : rst $end
$var reg 1 M one_clock_before $end
$upscope $end
$scope module uReaddata $end
$var wire 1 & clk $end
$var wire 32 N i_snk_data [31:0] $end
$var wire 1 / i_snk_valid $end
$var wire 1 O i_src_ready $end
$var wire 1 P o_snk_ready $end
$var wire 32 Q o_src_data [31:0] $end
$var wire 1 5 o_src_valid $end
$var wire 1 : rst $end
$var wire 1 R w_empty $end
$var wire 1 S w_full $end
$var reg 3 T r_ptr [2:0] $end
$var reg 3 U w_ptr [2:0] $end
$upscope $end
$upscope $end
$upscope $end
$enddefinitions $end
#0
$dumpvars
b0 U
b0 T
0S
1R
bx Q
1P
1O
b0 N
xM
b0 L
b0 K
0J
1I
bx H
1G
1F
bx E
b0 D
b0 C
b0 B
b0 A
bx @
b11111111111111111111111111111111 ?
0>
0=
0<
b0 ;
1:
09
08
bx 7
06
05
04
bx 3
b100 2
bx 1
00
0/
b0 .
0-
b0 ,
0+
b0 *
0)
b0 (
0'
0&
b0 %
0$
1#
b0 "
0!
$end
#500
1>
19
b1 ;
b1 D
1<
1=
14
b1 ,
b1 A
0M
b0 @
b0 E
b0 7
b0 ?
b1 "
1$
1-
b100 %
1!
1&
#1000
0!
0&
#1500
b10 ;
b10 D
b10 ,
b10 A
b11 %
b10 "
b0 1
b0 H
1!
1&
#2000
0!
0&
#2500
b11 ;
b11 D
b11 ,
b11 A
b11 "
b1101 %
1!
1&
#3000
0!
0&
#3500
b100 ;
b100 D
b100 ,
b100 A
b10 %
b100 "
1!
1&
#4000
0!
0&
0#
0:
#4500
0>
b101 ;
b101 D
b101 ,
b101 A
16
0I
1M
b100 @
b100 E
b100 7
b101 "
b1 %
b1 L
1!
1&
#5000
0!
0&
#5500
09
0<
b0 ;
b0 D
b110 ,
b110 A
06
1I
b1101 %
0$
0-
b110 "
b101 @
b101 E
b101 7
b1 K
bx 1
bx H
1!
1&
#6000
0!
0&
#6500
b111 ,
b111 A
b111 "
1!
1&
#7000
0!
0&
#7500
19
b1000 ;
b1000 D
1<
b1000 ,
b1000 A
b110 %
1$
1-
b1000 "
1!
1&
#8000
0!
0&
#8500
09
b0 ;
b0 D
0<
b1001 ,
b1001 A
b1000 @
b1000 E
b1000 7
b1001 "
0$
0-
b101 %
1!
1&
#9000
0!
0&
#9500
19
b1010 ;
b1010 D
1<
b1010 ,
b1010 A
b111 %
1$
1-
b1010 "
1!
1&
#10000
0!
0&
#10500
b1011 ;
b1011 D
b1011 ,
b1011 A
b1010 @
b1010 E
b1010 7
b1011 "
b10 %
1!
1&
#11000
0!
0&
#11500
09
0<
b0 ;
b0 D
b1100 ,
b1100 A
b1110 %
0$
0-
b1100 "
b1011 @
b1011 E
b1011 7
1!
1&
#12000
0!
0&
#12500
19
b1101 ;
b1101 D
1<
b1101 ,
b1101 A
b1101 "
1$
1-
b1000 %
1!
1&
#13000
0!
0&
#13500
09
0<
b0 ;
b0 D
b1110 ,
b1110 A
b1101 %
0$
0-
b1110 "
b1101 @
b1101 E
b1101 7
1!
1&
#14000
0!
0&
#14500
19
b1111 ;
b1111 D
1<
b1111 ,
b1111 A
b1111 "
1$
1-
1!
1&
#15000
0!
0&
#15500
b10000 ;
b10000 D
b10000 ,
b10000 A
b1010 %
b10000 "
b1111 @
b1111 E
b1111 7
1!
1&
#16000
0!
0&
#16500
09
b0 ;
b0 D
0<
b10001 ,
b10001 A
b10000 @
b10000 E
b10000 7
b10001 "
0$
0-
b0 %
1!
1&
#17000
0!
0&
#17500
b10010 ,
b10010 A
b1101 %
b10010 "
1!
1&
#18000
0!
0&
#18500
19
b10011 ;
b10011 D
1<
b10011 ,
b10011 A
b10011 "
1$
1-
b110 %
1!
1&
#19000
0!
0&
#19500
b10100 ;
b10100 D
b10100 ,
b10100 A
b11 %
b10100 "
b10011 @
b10011 E
b10011 7
1!
1&
#20000
0!
0&
#20500
b10101 ;
b10101 D
b10101 ,
b10101 A
b10100 @
b10100 E
b10100 7
b10101 "
b1011 %
1!
1&
#21000
0!
0&
#21500
09
0<
b0 ;
b0 D
b10110 ,
b10110 A
b1110 %
0$
0-
b10110 "
b10101 @
b10101 E
b10101 7
1!
1&
#22000
0!
0&
#22500
19
b10111 ;
b10111 D
1<
b10111 ,
b10111 A
b10111 "
1$
1-
b1101 %
1!
1&
#23000
0!
0&
#23500
b11000 ;
b11000 D
b11000 ,
b11000 A
b1010 %
b11000 "
b10111 @
b10111 E
b10111 7
1!
1&
#24000
0!
0&
#24500
09
b0 ;
b0 D
0<
b11001 ,
b11001 A
b11000 @
b11000 E
b11000 7
b11001 "
0$
0-
1!
1&
#25000
0!
0&
#25500
b11010 ,
b11010 A
b11010 "
1!
1&
#26000
0!
0&
#26500
b11011 ,
b11011 A
b11011 "
b1 %
1!
1&
#27000
0!
0&
#27500
b11100 ,
b11100 A
b1001 %
b11100 "
1!
1&
#28000
0!
0&
#28500
b11101 ,
b11101 A
b11101 "
b1011 %
1!
1&
#29000
0!
0&
#29500
b11110 ,
b11110 A
b1110 %
b11110 "
1!
1&
#30000
0!
0&
#30500
b11111 ,
b11111 A
b11111 "
b1100 %
1!
1&
#31000
0!
0&
#31500
19
b100000 ;
b100000 D
1<
b100000 ,
b100000 A
b1 %
1$
1-
b100000 "
1!
1&
#32000
0!
0&
#32500
b100001 ;
b100001 D
b100001 ,
b100001 A
b100000 @
b100000 E
b100000 7
b100001 "
b101 %
1!
1&
#33000
0!
0&
#33500
b100010 ;
b100010 D
b100010 ,
b100010 A
b1010 %
b100010 "
b100001 @
b100001 E
b100001 7
1!
1&
#34000
0!
0&
#34500
b100011 ;
b100011 D
b100011 ,
b100011 A
b100010 @
b100010 E
b100010 7
b100011 "
b1110 %
1!
1&
#35000
0!
0&
#35500
b100100 ;
b100100 D
b100100 ,
b100100 A
b1001 %
b100100 "
b100011 @
b100011 E
b100011 7
1!
1&
#36000
0!
0&
#36500
09
b0 ;
b0 D
0<
b100101 ,
b100101 A
b100100 @
b100100 E
b100100 7
b100101 "
0$
0-
b10 %
1!
1&
#37000
0!
0&
#37500
19
b100110 ;
b100110 D
1<
b100110 ,
b100110 A
b1111 %
1$
1-
b100110 "
1!
1&
#38000
0!
0&
#38500
b100111 ;
b100111 D
b100111 ,
b100111 A
b100110 @
b100110 E
b100110 7
b100111 "
b1000 %
1!
1&
#39000
0!
0&
#39500
b101000 ;
b101000 D
b101000 ,
b101000 A
b1100 %
b101000 "
b100111 @
b100111 E
b100111 7
1!
1&
#40000
0!
0&
#40500
b101001 ;
b101001 D
b101001 ,
b101001 A
b101000 @
b101000 E
b101000 7
b101001 "
b1011 %
1!
1&
#41000
0!
0&
#41500
b101010 ;
b101010 D
b101010 ,
b101010 A
b0 %
b101010 "
b101001 @
b101001 E
b101001 7
1!
1&
#42000
0!
0&
#42500
b101011 ;
b101011 D
b101011 ,
b101011 A
b101010 @
b101010 E
b101010 7
b101011 "
b111 %
1!
1&
#43000
0!
0&
#43500
09
0<
b0 ;
b0 D
b101100 ,
b101100 A
b1100 %
0$
0-
b101100 "
b101011 @
b101011 E
b101011 7
1!
1&
#44000
0!
0&
#44500
b101101 ,
b101101 A
b101101 "
b10 %
1!
1&
#45000
0!
0&
#45500
19
b101110 ;
b101110 D
1<
b101110 ,
b101110 A
b1101 %
1$
1-
b101110 "
1!
1&
#46000
0!
0&
#46500
09
b0 ;
b0 D
0<
b101111 ,
b101111 A
b101110 @
b101110 E
b101110 7
b101111 "
0$
0-
b10 %
1!
1&
#47000
0!
0&
#47500
19
b110000 ;
b110000 D
1<
b110000 ,
b110000 A
b1001 %
1$
1-
b110000 "
1!
1&
#48000
0!
0&
#48500
b110001 ;
b110001 D
b110001 ,
b110001 A
b110000 @
b110000 E
b110000 7
b110001 "
b1111 %
1!
1&
#49000
0!
0&
#49500
b110010 ;
b110010 D
b110010 ,
b110010 A
b1000 %
b110010 "
b110001 @
b110001 E
b110001 7
1!
1&
#50000
0!
0&
#50500
b110011 ;
b110011 D
b110011 ,
b110011 A
b110010 @
b110010 E
b110010 7
b110011 "
b1011 %
1!
1&
#51000
0!
0&
#51500
b110100 ;
b110100 D
b110100 ,
b110100 A
b1010 %
b110100 "
b110011 @
b110011 E
b110011 7
1!
1&
#52000
0!
0&
#52500
09
b0 ;
b0 D
0<
b110101 ,
b110101 A
b110100 @
b110100 E
b110100 7
b110101 "
0$
0-
b1000 %
1!
1&
#53000
0!
0&
#53500
b110110 ,
b110110 A
b1100 %
b110110 "
1!
1&
#54000
0!
0&
#54500
b110111 ,
b110111 A
b110111 "
b1010 %
1!
1&
#55000
0!
0&
#55500
19
b111000 ;
b111000 D
1<
b111000 ,
b111000 A
b11 %
1$
1-
b111000 "
1!
1&
#56000
0!
0&
#56500
b111001 ;
b111001 D
b111001 ,
b111001 A
b111000 @
b111000 E
b111000 7
b111001 "
b1111 %
1!
1&
#57000
0!
0&
#57500
b111010 ;
b111010 D
b111010 ,
b111010 A
b100 %
b111010 "
b111001 @
b111001 E
b111001 7
1!
1&
#58000
0!
0&
#58500
b111011 ;
b111011 D
b111011 ,
b111011 A
b111010 @
b111010 E
b111010 7
b111011 "
b111 %
1!
1&
#59000
0!
0&
#59500
09
0<
b0 ;
b0 D
b111100 ,
b111100 A
b1010 %
0$
0-
b111100 "
b111011 @
b111011 E
b111011 7
1!
1&
#60000
0!
0&
#60500
19
b111101 ;
b111101 D
1<
b111101 ,
b111101 A
b111101 "
1$
1-
b1001 %
1!
1&
#61000
0!
0&
#61500
09
0<
b0 ;
b0 D
b111110 ,
b111110 A
b101 %
0$
0-
b111110 "
b111101 @
b111101 E
b111101 7
1!
1&
#62000
0!
0&
#62500
19
b111111 ;
b111111 D
1<
b111111 ,
b111111 A
b111111 "
1$
1-
1!
1&
#63000
0!
0&
#63500
b1000000 ;
b1000000 D
b1000000 ,
b1000000 A
b100 %
b1000000 "
b111111 @
b111111 E
b111111 7
1!
1&
#64000
0!
0&
#64500
09
b0 ;
b0 D
0<
b1000001 ,
b1000001 A
b1000000 @
b1000000 E
b1000000 7
b1000001 "
0$
0-
b0 %
1!
1&
#65000
0!
0&
#65500
19
b1000010 ;
b1000010 D
1<
b1000010 ,
b1000010 A
b1110 %
1$
1-
b1000010 "
1!
1&
#66000
0!
0&
#66500
09
b0 ;
b0 D
0<
b1000011 ,
b1000011 A
b1000010 @
b1000010 E
b1000010 7
b1000011 "
0$
0-
b1100 %
1!
1&
#67000
0!
0&
#67500
19
b1000100 ;
b1000100 D
1<
b1000100 ,
b1000100 A
b11 %
1$
1-
b1000100 "
1!
1&
#68000
0!
0&
#68500
09
b0 ;
b0 D
0<
b1000101 ,
b1000101 A
b1000100 @
b1000100 E
b1000100 7
b1000101 "
0$
0-
b110 %
1!
1&
#69000
0!
0&
#69500
19
b1000110 ;
b1000110 D
1<
b1000110 ,
b1000110 A
b1010 %
1$
1-
b1000110 "
1!
1&
#70000
0!
0&
#70500
09
b0 ;
b0 D
0<
b1000111 ,
b1000111 A
b1000110 @
b1000110 E
b1000110 7
b1000111 "
0$
0-
b110 %
1!
1&
#71000
0!
0&
#71500
19
b1001000 ;
b1001000 D
1<
b1001000 ,
b1001000 A
b1000 %
1$
1-
b1001000 "
1!
1&
#72000
0!
0&
#72500
b1001001 ;
b1001001 D
b1001001 ,
b1001001 A
b1001000 @
b1001000 E
b1001000 7
b1001001 "
b100 %
1!
1&
#73000
0!
0&
#73500
09
0<
b0 ;
b0 D
b1001010 ,
b1001010 A
b1001 %
0$
0-
b1001010 "
b1001001 @
b1001001 E
b1001001 7
1!
1&
#74000
0!
0&
#74500
19
b1001011 ;
b1001011 D
1<
b1001011 ,
b1001011 A
b1001011 "
1$
1-
b1011 %
1!
1&
#75000
0!
0&
#75500
b1001100 ;
b1001100 D
b1001100 ,
b1001100 A
b1101 %
b1001100 "
b1001011 @
b1001011 E
b1001011 7
1!
1&
#76000
0!
0&
#76500
09
b0 ;
b0 D
0<
b1001101 ,
b1001101 A
b1001100 @
b1001100 E
b1001100 7
b1001101 "
0$
0-
b110 %
1!
1&
#77000
0!
0&
#77500
b1001110 ,
b1001110 A
b101 %
b1001110 "
1!
1&
#78000
0!
0&
#78500
b1001111 ,
b1001111 A
b1001111 "
b110 %
1!
1&
#79000
0!
0&
#79500
19
b1010000 ;
b1010000 D
1<
b1010000 ,
b1010000 A
b1001 %
1$
1-
b1010000 "
1!
1&
#80000
0!
0&
#80500
09
b0 ;
b0 D
0<
b1010001 ,
b1010001 A
b1010000 @
b1010000 E
b1010000 7
b1010001 "
0$
0-
b100 %
1!
1&
#81000
0!
0&
#81500
b1010010 ,
b1010010 A
b1101 %
b1010010 "
1!
1&
#82000
0!
0&
#82500
b1010011 ,
b1010011 A
b1010011 "
b111 %
1!
1&
#83000
0!
0&
#83500
b1010100 ,
b1010100 A
b1100 %
b1010100 "
1!
1&
#84000
0!
0&
#84500
19
b1010101 ;
b1010101 D
1<
b1010101 ,
b1010101 A
b1010101 "
1$
1-
b1101 %
1!
1&
#85000
0!
0&
#85500
09
0<
b0 ;
b0 D
b1010110 ,
b1010110 A
b110 %
0$
0-
b1010110 "
b1010101 @
b1010101 E
b1010101 7
1!
1&
#86000
0!
0&
#86500
19
b1010111 ;
b1010111 D
1<
b1010111 ,
b1010111 A
b1010111 "
1$
1-
b1010 %
1!
1&
#87000
0!
0&
#87500
09
0<
b0 ;
b0 D
b1011000 ,
b1011000 A
b0 %
0$
0-
b1011000 "
b1010111 @
b1010111 E
b1010111 7
1!
1&
#88000
0!
0&
#88500
b1011001 ,
b1011001 A
b1011001 "
b11 %
1!
1&
#89000
0!
0&
#89500
b1011010 ,
b1011010 A
b1010 %
b1011010 "
1!
1&
#90000
0!
0&
#90500
b1011011 ,
b1011011 A
b1011011 "
b101 %
1!
1&
#91000
0!
0&
#91500
19
b1011100 ;
b1011100 D
1<
b1011100 ,
b1011100 A
b111 %
1$
1-
b1011100 "
1!
1&
#92000
0!
0&
#92500
09
b0 ;
b0 D
0<
b1011101 ,
b1011101 A
b1011100 @
b1011100 E
b1011100 7
b1011101 "
0$
0-
b110 %
1!
1&
#93000
0!
0&
#93500
b1011110 ,
b1011110 A
b1011110 "
1!
1&
#94000
0!
0&
#94500
b1011111 ,
b1011111 A
b1011111 "
b1101 %
1!
1&
#95000
0!
0&
#95500
b1100000 ,
b1100000 A
b1000 %
b1100000 "
1!
1&
#96000
0!
0&
#96500
19
b1100001 ;
b1100001 D
1<
b1100001 ,
b1100001 A
b1100001 "
1$
1-
b1110 %
1!
1&
#97000
0!
0&
#97500
b1100010 ;
b1100010 D
b1100010 ,
b1100010 A
b1001 %
b1100010 "
b1100001 @
b1100001 E
b1100001 7
1!
1&
#98000
0!
0&
#98500
b1100011 ;
b1100011 D
b1100011 ,
b1100011 A
b1100010 @
b1100010 E
b1100010 7
b1100011 "
b1010 %
1!
1&
#99000
0!
0&
#99500
b1100100 ;
b1100100 D
b1100100 ,
b1100100 A
b1 %
b1100100 "
b1100011 @
b1100011 E
b1100011 7
1!
1&
#100000
0!
0&
#100500
09
b0 ;
b0 D
0<
b1100101 ,
b1100101 A
b1100100 @
b1100100 E
b1100100 7
b1100101 "
0$
0-
b110 %
1!
1&
#101000
0!
0&
#101500
19
b1100110 ;
b1100110 D
1<
b1100110 ,
b1100110 A
b101 %
1$
1-
b1100110 "
1!
1&
#102000
0!
0&
#102500
b1100111 ;
b1100111 D
b1100111 ,
b1100111 A
b1100110 @
b1100110 E
b1100110 7
b1100111 "
b1001 %
1!
1&
#103000
0!
0&
#103500
b1101000 ;
b1101000 D
b1101000 ,
b1101000 A
b1000 %
b1101000 "
b1100111 @
b1100111 E
b1100111 7
1!
1&
#104000
0!
0&
#104500
b1101001 ;
b1101001 D
b1101001 ,
b1101001 A
b1101000 @
b1101000 E
b1101000 7
b1101001 "
b1011 %
1!
1&
#105000
0!
0&
#105500
09
0<
b0 ;
b0 D
b1101010 ,
b1101010 A
b1010 %
0$
0-
b1101010 "
b1101001 @
b1101001 E
b1101001 7
1!
1&
#106000
0!
0&
#106500
b1101011 ,
b1101011 A
b1101011 "
b1110 %
1!
1&
#107000
0!
0&
#107500
19
b1101100 ;
b1101100 D
1<
b1101100 ,
b1101100 A
b1 %
1$
1-
b1101100 "
1!
1&
#108000
0!
0&
#108500
09
b0 ;
b0 D
0<
b1101101 ,
b1101101 A
b1101100 @
b1101100 E
b1101100 7
b1101101 "
0$
0-
b1110 %
1!
1&
#109000
0!
0&
#109500
19
b1101110 ;
b1101110 D
1<
b1101110 ,
b1101110 A
b1010 %
1$
1-
b1101110 "
1!
1&
#110000
0!
0&
#110500
b1101111 ;
b1101111 D
b1101111 ,
b1101111 A
b1101110 @
b1101110 E
b1101110 7
b1101111 "
1!
1&
#111000
0!
0&
#111500
09
0<
b0 ;
b0 D
b1110000 ,
b1110000 A
b1000 %
0$
0-
b1110000 "
b1101111 @
b1101111 E
b1101111 7
1!
1&
#112000
0!
0&
#112500
b1110001 ,
b1110001 A
b1110001 "
b1001 %
1!
1&
#113000
0!
0&
#113500
b1110010 ,
b1110010 A
b11 %
b1110010 "
1!
1&
#114000
0!
0&
#114500
19
b1110011 ;
b1110011 D
1<
b1110011 ,
b1110011 A
b1110011 "
1$
1-
b1011 %
1!
1&
#115000
0!
0&
#115500
09
0<
b0 ;
b0 D
b1110100 ,
b1110100 A
b1010 %
0$
0-
b1110100 "
b1110011 @
b1110011 E
b1110011 7
1!
1&
#116000
0!
0&
#116500
19
b1110101 ;
b1110101 D
1<
b1110101 ,
b1110101 A
b1110101 "
1$
1-
b100 %
1!
1&
#117000
0!
0&
#117500
09
0<
b0 ;
b0 D
b1110110 ,
b1110110 A
0$
0-
b1110110 "
b1110101 @
b1110101 E
b1110101 7
1!
1&
#118000
0!
0&
#118500
b1110111 ,
b1110111 A
b1110111 "
b1111 %
1!
1&
#119000
0!
0&
#119500
b1111000 ,
b1111000 A
b10 %
b1111000 "
1!
1&
#120000
0!
0&
#120500
19
b1111001 ;
b1111001 D
1<
b1111001 ,
b1111001 A
b1111001 "
1$
1-
1!
1&
#121000
0!
0&
#121500
09
0<
b0 ;
b0 D
b1111010 ,
b1111010 A
b100 %
0$
0-
b1111010 "
b1111001 @
b1111001 E
b1111001 7
1!
1&
#122000
0!
0&
#122500
19
b1111011 ;
b1111011 D
1<
b1111011 ,
b1111011 A
b1111011 "
1$
1-
b1010 %
1!
1&
#123000
0!
0&
#123500
b1111100 ;
b1111100 D
b1111100 ,
b1111100 A
b1110 %
b1111100 "
b1111011 @
b1111011 E
b1111011 7
1!
1&
#124000
0!
0&
#124500
b1111101 ;
b1111101 D
b1111101 ,
b1111101 A
b1111100 @
b1111100 E
b1111100 7
b1111101 "
b1011 %
1!
1&
#125000
0!
0&
#125500
b1111110 ;
b1111110 D
b1111110 ,
b1111110 A
b1001 %
b1111110 "
b1111101 @
b1111101 E
b1111101 7
1!
1&
#126000
0!
0&
#126500
b1111111 ;
b1111111 D
b1111111 ,
b1111111 A
b1111110 @
b1111110 E
b1111110 7
b1111111 "
b110 %
1!
1&
#127000
0!
0&
#127500
b10000000 ;
b10000000 D
b10000000 ,
b10000000 A
b1011 %
b10000000 "
b1111111 @
b1111111 E
b1111111 7
1!
1&
#128000
0!
0&
#128500
09
b0 ;
b0 D
0<
b10000001 ,
b10000001 A
b10000000 @
b10000000 E
b10000000 7
b10000001 "
0$
0-
b1000 %
1!
1&
#129000
0!
0&
#129500
19
b10000010 ;
b10000010 D
1<
b10000010 ,
b10000010 A
b10 %
1$
1-
b10000010 "
1!
1&
#130000
0!
0&
#130500
b10000011 ;
b10000011 D
b10000011 ,
b10000011 A
b10000010 @
b10000010 E
b10000010 7
b10000011 "
b1000 %
1!
1&
#131000
0!
0&
#131500
b10000100 ;
b10000100 D
b10000100 ,
b10000100 A
b10 %
b10000100 "
b10000011 @
b10000011 E
b10000011 7
1!
1&
#132000
0!
0&
#132500
b10000101 ;
b10000101 D
b10000101 ,
b10000101 A
b10000100 @
b10000100 E
b10000100 7
b10000101 "
b1110 %
1!
1&
#133000
0!
0&
#133500
09
0<
b0 ;
b0 D
b10000110 ,
b10000110 A
b1000 %
0$
0-
b10000110 "
b10000101 @
b10000101 E
b10000101 7
1!
1&
#134000
0!
0&
#134500
b10000111 ,
b10000111 A
b10000111 "
b1 %
1!
1&
#135000
0!
0&
#135500
19
b10001000 ;
b10001000 D
1<
b10001000 ,
b10001000 A
b1011 %
1$
1-
b10001000 "
1!
1&
#136000
0!
0&
#136500
b10001001 ;
b10001001 D
b10001001 ,
b10001001 A
b10001000 @
b10001000 E
b10001000 7
b10001001 "
b1000 %
1!
1&
#137000
0!
0&
#137500
09
0<
b0 ;
b0 D
b10001010 ,
b10001010 A
b1011 %
0$
0-
b10001010 "
b10001001 @
b10001001 E
b10001001 7
1!
1&
#138000
0!
0&
#138500
b10001011 ,
b10001011 A
b10001011 "
b10 %
1!
1&
#139000
0!
0&
#139500
19
b10001100 ;
b10001100 D
1<
b10001100 ,
b10001100 A
b1000 %
1$
1-
b10001100 "
1!
1&
#140000
0!
0&
#140500
09
b0 ;
b0 D
0<
b10001101 ,
b10001101 A
b10001100 @
b10001100 E
b10001100 7
b10001101 "
0$
0-
b10 %
1!
1&
#141000
0!
0&
#141500
19
b10001110 ;
b10001110 D
1<
b10001110 ,
b10001110 A
b101 %
1$
1-
b10001110 "
1!
1&
#142000
0!
0&
#142500
b10001111 ;
b10001111 D
b10001111 ,
b10001111 A
b10001110 @
b10001110 E
b10001110 7
b10001111 "
b1 %
1!
1&
#143000
0!
0&
#143500
b10010000 ;
b10010000 D
b10010000 ,
b10010000 A
b1000 %
b10010000 "
b10001111 @
b10001111 E
b10001111 7
1!
1&
#144000
0!
0&
#144500
b10010001 ;
b10010001 D
b10010001 ,
b10010001 A
b10010000 @
b10010000 E
b10010000 7
b10010001 "
b111 %
1!
1&
#145000
0!
0&
#145500
b10010010 ;
b10010010 D
b10010010 ,
b10010010 A
b100 %
b10010010 "
b10010001 @
b10010001 E
b10010001 7
1!
1&
#146000
0!
0&
#146500
09
b0 ;
b0 D
0<
b10010011 ,
b10010011 A
b10010010 @
b10010010 E
b10010010 7
b10010011 "
0$
0-
b1000 %
1!
1&
#147000
0!
0&
#147500
b10010100 ,
b10010100 A
b10 %
b10010100 "
1!
1&
#148000
0!
0&
#148500
19
b10010101 ;
b10010101 D
1<
b10010101 ,
b10010101 A
b10010101 "
1$
1-
b110 %
1!
1&
#149000
0!
0&
#149500
b10010110 ;
b10010110 D
b10010110 ,
b10010110 A
b1101 %
b10010110 "
b10010101 @
b10010101 E
b10010101 7
1!
1&
#150000
0!
0&
#150500
b10010111 ;
b10010111 D
b10010111 ,
b10010111 A
b10010110 @
b10010110 E
b10010110 7
b10010111 "
b1011 %
1!
1&
#151000
0!
0&
#151500
b10011000 ;
b10011000 D
b10011000 ,
b10011000 A
b111 %
b10011000 "
b10010111 @
b10010111 E
b10010111 7
1!
1&
#152000
0!
0&
#152500
b10011001 ;
b10011001 D
b10011001 ,
b10011001 A
b10011000 @
b10011000 E
b10011000 7
b10011001 "
b100 %
1!
1&
#153000
0!
0&
#153500
b10011010 ;
b10011010 D
b10011010 ,
b10011010 A
b1001 %
b10011010 "
b10011001 @
b10011001 E
b10011001 7
1!
1&
#154000
0!
0&
#154500
b10011011 ;
b10011011 D
b10011011 ,
b10011011 A
b10011010 @
b10011010 E
b10011010 7
b10011011 "
1!
1&
#155000
0!
0&
#155500
b10011100 ;
b10011100 D
b10011100 ,
b10011100 A
b1 %
b10011100 "
b10011011 @
b10011011 E
b10011011 7
1!
1&
#156000
0!
0&
#156500
09
b0 ;
b0 D
0<
b10011101 ,
b10011101 A
b10011100 @
b10011100 E
b10011100 7
b10011101 "
0$
0-
1!
1&
#157000
0!
0&
#157500
b10011110 ,
b10011110 A
b101 %
b10011110 "
1!
1&
#158000
0!
0&
#158500
b10011111 ,
b10011111 A
b10011111 "
b11 %
1!
1&
#159000
0!
0&
#159500
b10100000 ,
b10100000 A
b1110 %
b10100000 "
1!
1&
#160000
0!
0&
#160500
19
b10100001 ;
b10100001 D
1<
b10100001 ,
b10100001 A
b10100001 "
1$
1-
b1000 %
1!
1&
#161000
0!
0&
#161500
09
0<
b0 ;
b0 D
b10100010 ,
b10100010 A
b0 %
0$
0-
b10100010 "
b10100001 @
b10100001 E
b10100001 7
1!
1&
#162000
0!
0&
#162500
b10100011 ,
b10100011 A
b10100011 "
b1000 %
1!
1&
#163000
0!
0&
#163500
b10100100 ,
b10100100 A
b110 %
b10100100 "
1!
1&
#164000
0!
0&
#164500
b10100101 ,
b10100101 A
b10100101 "
b101 %
1!
1&
#165000
0!
0&
#165500
b10100110 ,
b10100110 A
b1001 %
b10100110 "
1!
1&
#166000
0!
0&
#166500
b10100111 ,
b10100111 A
b10100111 "
b0 %
1!
1&
#167000
0!
0&
#167500
b10101000 ,
b10101000 A
b10 %
b10101000 "
1!
1&
#168000
0!
0&
#168500
19
b10101001 ;
b10101001 D
1<
b10101001 ,
b10101001 A
b10101001 "
1$
1-
b101 %
1!
1&
#169000
0!
0&
#169500
b10101010 ;
b10101010 D
b10101010 ,
b10101010 A
b11 %
b10101010 "
b10101001 @
b10101001 E
b10101001 7
1!
1&
#170000
0!
0&
#170500
09
b0 ;
b0 D
0<
b10101011 ,
b10101011 A
b10101010 @
b10101010 E
b10101010 7
b10101011 "
0$
0-
b1001 %
1!
1&
#171000
0!
0&
#171500
19
b10101100 ;
b10101100 D
1<
b10101100 ,
b10101100 A
b1 %
1$
1-
b10101100 "
1!
1&
#172000
0!
0&
#172500
09
b0 ;
b0 D
0<
b10101101 ,
b10101101 A
b10101100 @
b10101100 E
b10101100 7
b10101101 "
0$
0-
b1101 %
1!
1&
#173000
0!
0&
#173500
19
b10101110 ;
b10101110 D
1<
b10101110 ,
b10101110 A
b1100 %
1$
1-
b10101110 "
1!
1&
#174000
0!
0&
#174500
b10101111 ;
b10101111 D
b10101111 ,
b10101111 A
b10101110 @
b10101110 E
b10101110 7
b10101111 "
1!
1&
#175000
0!
0&
#175500
b10110000 ;
b10110000 D
b10110000 ,
b10110000 A
b110 %
b10110000 "
b10101111 @
b10101111 E
b10101111 7
1!
1&
#176000
0!
0&
#176500
09
b0 ;
b0 D
0<
b10110001 ,
b10110001 A
b10110000 @
b10110000 E
b10110000 7
b10110001 "
0$
0-
b111 %
1!
1&
#177000
0!
0&
#177500
b10110010 ,
b10110010 A
b101 %
b10110010 "
1!
1&
#178000
0!
0&
#178500
b10110011 ,
b10110011 A
b10110011 "
b0 %
1!
1&
#179000
0!
0&
#179500
b10110100 ,
b10110100 A
b100 %
b10110100 "
1!
1&
#180000
0!
0&
#180500
19
b10110101 ;
b10110101 D
1<
b10110101 ,
b10110101 A
b10110101 "
1$
1-
b1101 %
1!
1&
#181000
0!
0&
#181500
b10110110 ;
b10110110 D
b10110110 ,
b10110110 A
b1001 %
b10110110 "
b10110101 @
b10110101 E
b10110101 7
1!
1&
#182000
0!
0&
#182500
b10110111 ;
b10110111 D
b10110111 ,
b10110111 A
b10110110 @
b10110110 E
b10110110 7
b10110111 "
b1110 %
1!
1&
#183000
0!
0&
#183500
b10111000 ;
b10111000 D
b10111000 ,
b10111000 A
b1111 %
b10111000 "
b10110111 @
b10110111 E
b10110111 7
1!
1&
