mMM_to_ST_arb/main.vcd
$date
	Sat Mar 23 14:20:40 2019
$end
$version
	Icarus Verilog
$end
$timescale
	1ps
$end
$scope module main $end
$var reg 1 ! clk $end
$var reg 32 " data [31:0] $end
$var reg 1 # rst $end
$var reg 1 $ valid $end
$scope module uMM_to_ST_arb $end
$var wire 1 % clk $end
$var wire 18 & i_addr [17:0] $end
$var wire 1 ' i_read_req $end
$var wire 32 ( i_readdata [31:0] $end
$var wire 1 ) i_readdatavalid $end
$var wire 1 * i_waitrequest $end
$var wire 1 + i_write_req $end
$var wire 32 , i_writedata [31:0] $end
$var wire 18 - o_addr [17:0] $end
$var wire 1 . o_read $end
$var wire 1 / o_read_mem_complete $end
$var wire 32 0 o_readdata [31:0] $end
$var wire 1 1 o_valid $end
$var wire 1 2 o_write $end
$var wire 1 3 o_write_mem_complete $end
$var wire 32 4 o_writedata [31:0] $end
$var wire 1 5 rst $end
$var wire 52 6 w_inst_fifo_in [51:0] $end
$var wire 52 7 w_inst_fifo_out [51:0] $end
$var wire 1 8 w_inst_fifo_valid_out $end
$scope module uInstFifo $end
$var wire 1 % clk $end
$var wire 52 9 i_snk_data [51:0] $end
$var wire 1 : i_snk_valid $end
$var wire 1 ; i_src_ready $end
$var wire 1 < o_snk_ready $end
$var wire 52 = o_src_data [51:0] $end
$var wire 1 8 o_src_valid $end
$var wire 1 5 rst $end
$var wire 1 > w_empty $end
$var wire 1 ? w_full $end
$var reg 3 @ r_ptr [2:0] $end
$var reg 3 A w_ptr [2:0] $end
$upscope $end
$scope module uReaddata $end
$var wire 1 % clk $end
$var wire 32 B i_snk_data [31:0] $end
$var wire 1 ) i_snk_valid $end
$var wire 1 C i_src_ready $end
$var wire 1 D o_snk_ready $end
$var wire 32 E o_src_data [31:0] $end
$var wire 1 1 o_src_valid $end
$var wire 1 5 rst $end
$var wire 1 F w_empty $end
$var wire 1 G w_full $end
$var reg 3 H r_ptr [2:0] $end
$var reg 3 I w_ptr [2:0] $end
$upscope $end
$upscope $end
$upscope $end
$enddefinitions $end
#0
$dumpvars
b0 I
b0 H
0G
1F
bx E
1D
1C
b0 B
b0 A
b0 @
0?
1>
bx =
1<
1;
0:
b0 9
08
bx 7
b0 6
15
bx 4
03
02
01
bx 0
0/
0.
bx -
b0 ,
0+
0*
0)
b0 (
0'
b0 &
0%
0$
1#
b0 "
0!
$end
#500
b1 "
b1 (
b1 B
1!
1%
#1000
0!
0%
#1500
1$
1)
b10 "
b10 (
b10 B
1!
1%
#2000
0!
0%
#2500
b10 0
b10 E
b11 "
b11 (
b11 B
1!
1%
#3000
0!
0%
#3500
b100 "
b100 (
b100 B
b11 0
b11 E
1!
1%
#4000
1/
0!
0%
0#
05
#4500
11
0F
b100 0
b100 E
b101 "
b101 (
b101 B
b1 I
1!
1%
#5000
0!
0%
#5500
b110 "
b110 (
b110 B
b10 I
b1 H
b101 0
b101 E
1!
1%
#6000
0!
0%
#6500
b111 "
b111 (
b111 B
b10 H
b110 0
b110 E
b11 I
1!
1%
#7000
0!
0%
#7500
0/
0$
0)
b1000 "
b1000 (
b1000 B
b100 I
b11 H
b111 0
b111 E
1!
1%
#8000
0!
0%
#8500
1/
01
1F
b1001 "
b1001 (
b1001 B
1$
1)
b100 H
bx 0
bx E
1!
1%
#9000
0!
0%
#9500
11
0F
b1010 "
b1010 (
b1010 B
b1001 0
b1001 E
b101 I
1!
1%
#10000
0!
0%
#10500
0/
b1011 "
b1011 (
b1011 B
0$
0)
b101 H
b1010 0
b1010 E
b110 I
1!
1%
#11000
0!
0%
#11500
1/
01
1F
1$
1)
b1100 "
b1100 (
b1100 B
b110 H
bx 0
bx E
1!
1%
#12000
0!
0%
#12500
11
0F
b1100 0
b1100 E
b1101 "
b1101 (
b1101 B
b111 I
1!
1%
#13000
0!
0%
#13500
0/
0$
0)
b1110 "
b1110 (
b1110 B
b0 I
b111 H
b1101 0
b1101 E
1!
1%
#14000
0!
0%
#14500
1/
01
1F
b1111 "
b1111 (
b1111 B
1$
1)
b0 H
b100 0
b100 E
1!
1%
#15000
0!
0%
#15500
0/
11
0F
0$
0)
b10000 "
b10000 (
b10000 B
b1111 0
b1111 E
b1 I
1!
1%
#16000
0!
0%
#16500
1/
01
1F
b10001 "
b10001 (
b10001 B
1$
1)
b1 H
b101 0
b101 E
1!
1%
#17000
0!
0%
#17500
0/
11
0F
0$
0)
b10010 "
b10010 (
b10010 B
b10001 0
b10001 E
b10 I
1!
1%
#18000
0!
0%
#18500
1/
01
1F
b10011 "
b10011 (
b10011 B
1$
1)
b10 H
b110 0
b110 E
1!
1%
#19000
0!
0%
#19500
11
0F
b10100 "
b10100 (
b10100 B
b10011 0
b10011 E
b11 I
1!
1%
#20000
0!
0%
#20500
0/
b10101 "
b10101 (
b10101 B
0$
0)
b11 H
b10100 0
b10100 E
b100 I
1!
1%
#21000
0!
0%
#21500
1/
01
1F
1$
1)
b10110 "
b10110 (
b10110 B
b100 H
b1001 0
b1001 E
1!
1%
#22000
0!
0%
#22500
0/
11
0F
b10110 0
b10110 E
b10111 "
b10111 (
b10111 B
0$
0)
b101 I
1!
1%
#23000
0!
0%
#23500
01
1F
b11000 "
b11000 (
b11000 B
b101 H
b1010 0
b1010 E
1!
1%
#24000
0!
0%
#24500
b11001 "
b11001 (
b11001 B
1!
1%
#25000
0!
0%
#25500
1/
1$
1)
b11010 "
b11010 (
b11010 B
1!
1%
#26000
0!
0%
#26500
0/
11
0F
b11010 0
b11010 E
b11011 "
b11011 (
b11011 B
0$
0)
b110 I
1!
1%
#27000
0!
0%
#27500
1/
01
1F
1$
1)
b11100 "
b11100 (
b11100 B
b110 H
b1100 0
b1100 E
1!
1%
#28000
0!
0%
#28500
11
0F
b11100 0
b11100 E
b11101 "
b11101 (
b11101 B
b111 I
1!
1%
#29000
0!
0%
#29500
b11110 "
b11110 (
b11110 B
b0 I
b111 H
b11101 0
b11101 E
1!
1%
#30000
0!
0%
#30500
b11111 "
b11111 (
b11111 B
b0 H
b11110 0
b11110 E
b1 I
1!
1%
#31000
0!
0%
#31500
0/
0$
0)
b100000 "
b100000 (
b100000 B
b10 I
b1 H
b11111 0
b11111 E
1!
1%
#32000
0!
0%
#32500
01
1F
b100001 "
b100001 (
b100001 B
b10 H
b10011 0
b10011 E
1!
1%
#33000
0!
0%
#33500
b100010 "
b100010 (
b100010 B
1!
1%
#34000
0!
0%
#34500
b100011 "
b100011 (
b100011 B
1!
1%
#35000
0!
0%
#35500
1/
1$
1)
b100100 "
b100100 (
b100100 B
1!
1%
#36000
0!
0%
#36500
0/
11
0F
b100100 0
b100100 E
b100101 "
b100101 (
b100101 B
0$
0)
b11 I
1!
1%
#37000
0!
0%
#37500
1/
01
1F
1$
1)
b100110 "
b100110 (
b100110 B
b11 H
b10100 0
b10100 E
1!
1%
#38000
0!
0%
#38500
11
0F
b100110 0
b100110 E
b100111 "
b100111 (
b100111 B
b100 I
1!
1%
#39000
0!
0%
#39500
b101000 "
b101000 (
b101000 B
b101 I
b100 H
b100111 0
b100111 E
1!
1%
#40000
0!
0%
#40500
b101001 "
b101001 (
b101001 B
b101 H
b101000 0
b101000 E
b110 I
1!
1%
#41000
0!
0%
#41500
b101010 "
b101010 (
b101010 B
b111 I
b110 H
b101001 0
b101001 E
1!
1%
#42000
0!
0%
#42500
0/
b101011 "
b101011 (
b101011 B
0$
0)
b111 H
b101010 0
b101010 E
b0 I
1!
1%
#43000
0!
0%
#43500
01
1F
b101100 "
b101100 (
b101100 B
b0 H
b11110 0
b11110 E
1!
1%
#44000
0!
0%
#44500
1/
b101101 "
b101101 (
b101101 B
1$
1)
1!
1%
#45000
0!
0%
#45500
11
0F
b101110 "
b101110 (
b101110 B
b101101 0
b101101 E
b1 I
1!
1%
#46000
0!
0%
#46500
b101111 "
b101111 (
b101111 B
b1 H
b101110 0
b101110 E
b10 I
1!
1%
#47000
0!
0%
#47500
0/
0$
0)
b110000 "
b110000 (
b110000 B
b11 I
b10 H
b101111 0
b101111 E
1!
1%
#48000
0!
0%
#48500
01
1F
b110001 "
b110001 (
b110001 B
b11 H
b100110 0
b100110 E
1!
1%
#49000
0!
0%
#49500
b110010 "
b110010 (
b110010 B
1!
1%
#50000
0!
0%
#50500
b110011 "
b110011 (
b110011 B
1!
1%
#51000
0!
0%
#51500
b110100 "
b110100 (
b110100 B
1!
1%
#52000
0!
0%
#52500
1/
b110101 "
b110101 (
b110101 B
1$
1)
1!
1%
#53000
0!
0%
#53500
0/
11
0F
0$
0)
b110110 "
b110110 (
b110110 B
b110101 0
b110101 E
b100 I
1!
1%
#54000
0!
0%
#54500
01
1F
b110111 "
b110111 (
b110111 B
b100 H
b100111 0
b100111 E
1!
1%
#55000
0!
0%
#55500
1/
1$
1)
b111000 "
b111000 (
b111000 B
1!
1%
#56000
0!
0%
#56500
11
0F
b111000 0
b111000 E
b111001 "
b111001 (
b111001 B
b101 I
1!
1%
#57000
0!
0%
#57500
0/
0$
0)
b111010 "
b111010 (
b111010 B
b110 I
b101 H
b111001 0
b111001 E
1!
1%
#58000
0!
0%
#58500
01
1F
b111011 "
b111011 (
b111011 B
b110 H
b101001 0
b101001 E
1!
1%
#59000
0!
0%
#59500
b111100 "
b111100 (
b111100 B
1!
1%
#60000
0!
0%
#60500
b111101 "
b111101 (
b111101 B
1!
1%
#61000
0!
0%
#61500
b111110 "
b111110 (
b111110 B
1!
1%
#62000
0!
0%
#62500
1/
b111111 "
b111111 (
b111111 B
1$
1)
1!
1%
#63000
0!
0%
#63500
11
0F
b1000000 "
b1000000 (
b1000000 B
b111111 0
b111111 E
b111 I
1!
1%
#64000
0!
0%
#64500
b1000001 "
b1000001 (
b1000001 B
b111 H
b1000000 0
b1000000 E
b0 I
1!
1%
#65000
0!
0%
#65500
b1000010 "
b1000010 (
b1000010 B
b1 I
b0 H
b1000001 0
b1000001 E
1!
1%
#66000
0!
0%
#66500
b1000011 "
b1000011 (
b1000011 B
b1 H
b1000010 0
b1000010 E
b10 I
1!
1%
#67000
0!
0%
#67500
0/
0$
0)
b1000100 "
b1000100 (
b1000100 B
b11 I
b10 H
b1000011 0
b1000011 E
1!
1%
#68000
0!
0%
#68500
01
1F
b1000101 "
b1000101 (
b1000101 B
b11 H
b110101 0
b110101 E
1!
1%
#69000
0!
0%
#69500
1/
1$
1)
b1000110 "
b1000110 (
b1000110 B
1!
1%
#70000
0!
0%
#70500
11
0F
b1000110 0
b1000110 E
b1000111 "
b1000111 (
b1000111 B
b100 I
1!
1%
#71000
0!
0%
#71500
b1001000 "
b1001000 (
b1001000 B
b101 I
b100 H
b1000111 0
b1000111 E
1!
1%
#72000
0!
0%
#72500
0/
b1001001 "
b1001001 (
b1001001 B
0$
0)
b101 H
b1001000 0
b1001000 E
b110 I
1!
1%
#73000
0!
0%
#73500
01
1F
b1001010 "
b1001010 (
b1001010 B
b110 H
b111111 0
b111111 E
1!
1%
#74000
0!
0%
#74500
1/
b1001011 "
b1001011 (
b1001011 B
1$
1)
1!
1%
#75000
0!
0%
#75500
11
0F
b1001100 "
b1001100 (
b1001100 B
b1001011 0
b1001011 E
b111 I
1!
1%
#76000
0!
0%
#76500
0/
b1001101 "
b1001101 (
b1001101 B
0$
0)
b111 H
b1001100 0
b1001100 E
b0 I
1!
1%
#77000
0!
0%
#77500
1/
01
1F
1$
1)
b1001110 "
b1001110 (
b1001110 B
b0 H
b1000001 0
b1000001 E
1!
1%
#78000
0!
0%
#78500
11
0F
b1001110 0
b1001110 E
b1001111 "
b1001111 (
b1001111 B
b1 I
1!
1%
#79000
0!
0%
#79500
0/
0$
0)
b1010000 "
b1010000 (
b1010000 B
b10 I
b1 H
b1001111 0
b1001111 E
1!
1%
#80000
0!
0%
#80500
1/
01
1F
b1010001 "
b1010001 (
b1010001 B
1$
1)
b10 H
b1000011 0
b1000011 E
1!
1%
#81000
0!
0%
#81500
11
0F
b1010010 "
b1010010 (
b1010010 B
b1010001 0
b1010001 E
b11 I
1!
1%
#82000
0!
0%
#82500
b1010011 "
b1010011 (
b1010011 B
b11 H
b1010010 0
b1010010 E
b100 I
1!
1%
#83000
0!
0%
#83500
0/
0$
0)
b1010100 "
b1010100 (
b1010100 B
b101 I
b100 H
b1010011 0
b1010011 E
1!
1%
#84000
0!
0%
#84500
1/
01
1F
b1010101 "
b1010101 (
b1010101 B
1$
1)
b101 H
b1001000 0
b1001000 E
1!
1%
#85000
0!
0%
#85500
11
0F
b1010110 "
b1010110 (
b1010110 B
b1010101 0
b1010101 E
b110 I
1!
1%
#86000
0!
0%
#86500
0/
b1010111 "
b1010111 (
b1010111 B
0$
0)
b110 H
b1010110 0
b1010110 E
b111 I
1!
1%
#87000
0!
0%
#87500
01
1F
b1011000 "
b1011000 (
b1011000 B
b111 H
b1001100 0
b1001100 E
1!
1%
#88000
0!
0%
#88500
b1011001 "
b1011001 (
b1011001 B
1!
1%
#89000
0!
0%
#89500
b1011010 "
b1011010 (
b1011010 B
1!
1%
#90000
0!
0%
#90500
1/
b1011011 "
b1011011 (
b1011011 B
1$
1)
1!
1%
#91000
0!
0%
#91500
11
0F
b1011100 "
b1011100 (
b1011100 B
b1011011 0
b1011011 E
b0 I
1!
1%
#92000
0!
0%
#92500
0/
b1011101 "
b1011101 (
b1011101 B
0$
0)
b0 H
b1011100 0
b1011100 E
b1 I
1!
1%
#93000
0!
0%
#93500
01
1F
b1011110 "
b1011110 (
b1011110 B
b1 H
b1001111 0
b1001111 E
1!
1%
#94000
0!
0%
#94500
1/
b1011111 "
b1011111 (
b1011111 B
1$
1)
1!
1%
#95000
0!
0%
#95500
11
0F
b1100000 "
b1100000 (
b1100000 B
b1011111 0
b1011111 E
b10 I
1!
1%
#96000
0!
0%
#96500
b1100001 "
b1100001 (
b1100001 B
b10 H
b1100000 0
b1100000 E
b11 I
1!
1%
#97000
0!
0%
#97500
b1100010 "
b1100010 (
b1100010 B
b100 I
b11 H
b1100001 0
b1100001 E
1!
1%
#98000
0!
0%
#98500
b1100011 "
b1100011 (
b1100011 B
b100 H
b1100010 0
b1100010 E
b101 I
1!
1%
#99000
0!
0%
#99500
0/
0$
0)
b1100100 "
b1100100 (
b1100100 B
b110 I
b101 H
b1100011 0
b1100011 E
1!
1%
#100000
0!
0%
#100500
1/
01
1F
b1100101 "
b1100101 (
b1100101 B
1$
1)
b110 H
b1010110 0
b1010110 E
1!
1%
#101000
0!
0%
#101500
11
0F
b1100110 "
b1100110 (
b1100110 B
b1100101 0
b1100101 E
b111 I
1!
1%
#102000
0!
0%
#102500
b1100111 "
b1100111 (
b1100111 B
b111 H
b1100110 0
b1100110 E
b0 I
1!
1%
#103000
0!
0%
#103500
0/
0$
0)
b1101000 "
b1101000 (
b1101000 B
b1 I
b0 H
b1100111 0
b1100111 E
1!
1%
#104000
0!
0%
#104500
01
1F
b1101001 "
b1101001 (
b1101001 B
b1 H
b1011111 0
b1011111 E
1!
1%
#105000
0!
0%
#105500
b1101010 "
b1101010 (
b1101010 B
1!
1%
#106000
0!
0%
#106500
b1101011 "
b1101011 (
b1101011 B
1!
1%
#107000
0!
0%
#107500
b1101100 "
b1101100 (
b1101100 B
1!
1%
#108000
0!
0%
#108500
b1101101 "
b1101101 (
b1101101 B
1!
1%
#109000
0!
0%
#109500
b1101110 "
b1101110 (
b1101110 B
1!
1%
#110000
0!
0%
#110500
1/
b1101111 "
b1101111 (
b1101111 B
1$
1)
1!
1%
#111000
0!
0%
#111500
11
0F
b1110000 "
b1110000 (
b1110000 B
b1101111 0
b1101111 E
b10 I
1!
1%
#112000
0!
0%
#112500
b1110001 "
b1110001 (
b1110001 B
b10 H
b1110000 0
b1110000 E
b11 I
1!
1%
#113000
0!
0%
#113500
b1110010 "
b1110010 (
b1110010 B
b100 I
b11 H
b1110001 0
b1110001 E
1!
1%
#114000
0!
0%
#114500
b1110011 "
b1110011 (
b1110011 B
b100 H
b1110010 0
b1110010 E
b101 I
1!
1%
#115000
0!
0%
#115500
0/
0$
0)
b1110100 "
b1110100 (
b1110100 B
b110 I
b101 H
b1110011 0
b1110011 E
1!
1%
#116000
0!
0%
#116500
1/
01
1F
b1110101 "
b1110101 (
b1110101 B
1$
1)
b110 H
b1100101 0
b1100101 E
1!
1%
#117000
0!
0%
#117500
11
0F
b1110110 "
b1110110 (
b1110110 B
b1110101 0
b1110101 E
b111 I
1!
1%
#118000
0!
0%
#118500
0/
b1110111 "
b1110111 (
b1110111 B
0$
0)
b111 H
b1110110 0
b1110110 E
b0 I
1!
1%
#119000
0!
0%
#119500
01
1F
b1111000 "
b1111000 (
b1111000 B
b0 H
b1100111 0
b1100111 E
1!
1%
#120000
0!
0%
#120500
1/
b1111001 "
b1111001 (
b1111001 B
1$
1)
1!
1%
#121000
0!
0%
#121500
11
0F
b1111010 "
b1111010 (
b1111010 B
b1111001 0
b1111001 E
b1 I
1!
1%
#122000
0!
0%
#122500
0/
b1111011 "
b1111011 (
b1111011 B
0$
0)
b1 H
b1111010 0
b1111010 E
b10 I
1!
1%
#123000
0!
0%
#123500
1/
01
1F
1$
1)
b1111100 "
b1111100 (
b1111100 B
b10 H
b1110000 0
b1110000 E
1!
1%
#124000
0!
0%
#124500
11
0F
b1111100 0
b1111100 E
b1111101 "
b1111101 (
b1111101 B
b11 I
1!
1%
#125000
0!
0%
#125500
b1111110 "
b1111110 (
b1111110 B
b100 I
b11 H
b1111101 0
b1111101 E
1!
1%
#126000
0!
0%
#126500
b1111111 "
b1111111 (
b1111111 B
b100 H
b1111110 0
b1111110 E
b101 I
1!
1%
#127000
0!
0%
#127500
0/
0$
0)
b10000000 "
b10000000 (
b10000000 B
b110 I
b101 H
b1111111 0
b1111111 E
1!
1%
#128000
0!
0%
#128500
01
1F
b10000001 "
b10000001 (
b10000001 B
b110 H
b1110101 0
b1110101 E
1!
1%
#129000
0!
0%
#129500
b10000010 "
b10000010 (
b10000010 B
1!
1%
#130000
0!
0%
#130500
1/
b10000011 "
b10000011 (
b10000011 B
1$
1)
1!
1%
#131000
0!
0%
#131500
0/
11
0F
0$
0)
b10000100 "
b10000100 (
b10000100 B
b10000011 0
b10000011 E
b111 I
1!
1%
#132000
0!
0%
#132500
01
1F
b10000101 "
b10000101 (
b10000101 B
b111 H
b1110110 0
b1110110 E
1!
1%
#133000
0!
0%
#133500
b10000110 "
b10000110 (
b10000110 B
1!
1%
#134000
0!
0%
#134500
1/
b10000111 "
b10000111 (
b10000111 B
1$
1)
1!
1%
#135000
0!
0%
#135500
11
0F
b10001000 "
b10001000 (
b10001000 B
b10000111 0
b10000111 E
b0 I
1!
1%
#136000
0!
0%
#136500
0/
b10001001 "
b10001001 (
b10001001 B
0$
0)
b0 H
b10001000 0
b10001000 E
b1 I
1!
1%
#137000
0!
0%
#137500
01
1F
b10001010 "
b10001010 (
b10001010 B
b1 H
b1111010 0
b1111010 E
1!
1%
#138000
0!
0%
#138500
1/
b10001011 "
b10001011 (
b10001011 B
1$
1)
1!
1%
#139000
0!
0%
#139500
0/
11
0F
0$
0)
b10001100 "
b10001100 (
b10001100 B
b10001011 0
b10001011 E
b10 I
1!
1%
#140000
0!
0%
#140500
01
1F
b10001101 "
b10001101 (
b10001101 B
b10 H
b1111100 0
b1111100 E
1!
1%
#141000
0!
0%
#141500
b10001110 "
b10001110 (
b10001110 B
1!
1%
#142000
0!
0%
#142500
1/
b10001111 "
b10001111 (
b10001111 B
1$
1)
1!
1%
#143000
0!
0%
#143500
0/
11
0F
0$
0)
b10010000 "
b10010000 (
b10010000 B
b10001111 0
b10001111 E
b11 I
1!
1%
#144000
0!
0%
#144500
01
1F
b10010001 "
b10010001 (
b10010001 B
b11 H
b1111101 0
b1111101 E
1!
1%
#145000
0!
0%
#145500
1/
1$
1)
b10010010 "
b10010010 (
b10010010 B
1!
1%
#146000
0!
0%
#146500
0/
11
0F
b10010010 0
b10010010 E
b10010011 "
b10010011 (
b10010011 B
0$
0)
b100 I
1!
1%
#147000
0!
0%
#147500
1/
01
1F
1$
1)
b10010100 "
b10010100 (
b10010100 B
b100 H
b1111110 0
b1111110 E
1!
1%
#148000
0!
0%
#148500
11
0F
b10010100 0
b10010100 E
b10010101 "
b10010101 (
b10010101 B
b101 I
1!
1%
#149000
0!
0%
#149500
b10010110 "
b10010110 (
b10010110 B
b110 I
b101 H
b10010101 0
b10010101 E
1!
1%
#150000
0!
0%
#150500
b10010111 "
b10010111 (
b10010111 B
b110 H
b10010110 0
b10010110 E
b111 I
1!
1%
#151000
0!
0%
#151500
b10011000 "
b10011000 (
b10011000 B
b0 I
b111 H
b10010111 0
b10010111 E
1!
1%
#152000
0!
0%
#152500
0/
b10011001 "
b10011001 (
b10011001 B
0$
0)
b0 H
b10011000 0
b10011000 E
b1 I
1!
1%
#153000
0!
0%
#153500
01
1F
b10011010 "
b10011010 (
b10011010 B
b1 H
b10001011 0
b10001011 E
1!
1%
#154000
0!
0%
#154500
b10011011 "
b10011011 (
b10011011 B
1!
1%
#155000
0!
0%
#155500
1/
1$
1)
b10011100 "
b10011100 (
b10011100 B
1!
1%
#156000
0!
0%
#156500
0/
11
0F
b10011100 0
b10011100 E
b10011101 "
b10011101 (
b10011101 B
0$
0)
b10 I
1!
1%
#157000
0!
0%
#157500
01
1F
b10011110 "
b10011110 (
b10011110 B
b10 H
b10001111 0
b10001111 E
1!
1%
#158000
0!
0%
#158500
1/
b10011111 "
b10011111 (
b10011111 B
1$
1)
1!
1%
#159000
0!
0%
#159500
11
0F
b10100000 "
b10100000 (
b10100000 B
b10011111 0
b10011111 E
b11 I
1!
1%
#160000
0!
0%
#160500
0/
b10100001 "
b10100001 (
b10100001 B
0$
0)
b11 H
b10100000 0
b10100000 E
b100 I
1!
1%
#161000
0!
0%
#161500
01
1F
b10100010 "
b10100010 (
b10100010 B
b100 H
b10010100 0
b10010100 E
1!
1%
#162000
0!
0%
#162500
b10100011 "
b10100011 (
b10100011 B
1!
1%
#163000
0!
0%
#163500
1/
1$
1)
b10100100 "
b10100100 (
b10100100 B
1!
1%
#164000
0!
0%
#164500
11
0F
b10100100 0
b10100100 E
b10100101 "
b10100101 (
b10100101 B
b101 I
1!
1%
#165000
0!
0%
#165500
0/
0$
0)
b10100110 "
b10100110 (
b10100110 B
b110 I
b101 H
b10100101 0
b10100101 E
1!
1%
#166000
0!
0%
#166500
01
1F
b10100111 "
b10100111 (
b10100111 B
b110 H
b10010110 0
b10010110 E
1!
1%
#167000
0!
0%
#167500
b10101000 "
b10101000 (
b10101000 B
1!
1%
#168000
0!
0%
#168500
1/
b10101001 "
b10101001 (
b10101001 B
1$
1)
1!
1%
#169000
0!
0%
#169500
11
0F
b10101010 "
b10101010 (
b10101010 B
b10101001 0
b10101001 E
b111 I
1!
1%
#170000
0!
0%
#170500
0/
b10101011 "
b10101011 (
b10101011 B
0$
0)
b111 H
b10101010 0
b10101010 E
b0 I
1!
1%
#171000
0!
0%
#171500
01
1F
b10101100 "
b10101100 (
b10101100 B
b0 H
b10011000 0
b10011000 E
1!
1%
#172000
0!
0%
#172500
b10101101 "
b10101101 (
b10101101 B
1!
1%
#173000
0!
0%
#173500
1/
1$
1)
b10101110 "
b10101110 (
b10101110 B
1!
1%
#174000
0!
0%
#174500
0/
11
0F
b10101110 0
b10101110 E
b10101111 "
b10101111 (
b10101111 B
0$
0)
b1 I
1!
1%
#175000
0!
0%
#175500
01
1F
b10110000 "
b10110000 (
b10110000 B
b1 H
b10011100 0
b10011100 E
1!
1%
#176000
0!
0%
#176500
1/
b10110001 "
b10110001 (
b10110001 B
1$
1)
1!
1%
#177000
0!
0%
#177500
0/
11
0F
0$
0)
b10110010 "
b10110010 (
b10110010 B
b10110001 0
b10110001 E
b10 I
1!
1%
#178000
0!
0%
#178500
01
1F
b10110011 "
b10110011 (
b10110011 B
b10 H
b10011111 0
b10011111 E
1!
1%
#179000
0!
0%
#179500
b10110100 "
b10110100 (
b10110100 B
1!
1%
#180000
0!
0%
#180500
1/
b10110101 "
b10110101 (
b10110101 B
1$
1)
1!
1%
#181000
0!
0%
#181500
0/
11
0F
0$
0)
b10110110 "
b10110110 (
b10110110 B
b10110101 0
b10110101 E
b11 I
1!
1%
#182000
0!
0%
#182500
1/
01
1F
b10110111 "
b10110111 (
b10110111 B
1$
1)
b11 H
b10100000 0
b10100000 E
1!
1%
#183000
0!
0%
#183500
11
0F
b10111000 "
b10111000 (
b10111000 B
b10110111 0
b10110111 E
b100 I
1!
1%
#184000
0!
0%
#184500
0/
b10111001 "
b10111001 (
b10111001 B
0$
0)
b100 H
b10111000 0
b10111000 E
b101 I
1!
1%
#185000
0!
0%
#185500
01
1F
b10111010 "
b10111010 (
b10111010 B
b101 H
b10100101 0
b10100101 E
1!
1%
#186000
0!
0%
#186500
b10111011 "
b10111011 (
b10111011 B
1!
1%
#187000
0!
0%
#187500
b10111100 "
b10111100 (
b10111100 B
1!
1%
#188000
0!
0%
#188500
1/
b10111101 "
b10111101 (
b10111101 B
1$
1)
1!
1%
#189000
0!
0%
#189500
0/
11
0F
0$
0)
b10111110 "
b10111110 (
b10111110 B
b10111101 0
b10111101 E
b110 I
1!
1%
#190000
0!
0%
#190500
01
1F
b10111111 "
b10111111 (
b10111111 B
b110 H
b10101001 0
b10101001 E
1!
1%
#191000
0!
0%
#191500
b11000000 "
b11000000 (
b11000000 B
1!
1%
#192000
0!
0%
#192500
b11000001 "
b11000001 (
b11000001 B
1!
1%
#193000
0!
0%
#193500
1/
1$
1)
b11000010 "
b11000010 (
b11000010 B
1!
1%
#194000
0!
0%
#194500
11
0F
b11000010 0
b11000010 E
b11000011 "
b11000011 (
b11000011 B
b111 I
1!
1%
#195000
0!
0%
#195500
b11000100 "
b11000100 (
b11000100 B
b0 I
b111 H
b11000011 0
b11000011 E
1!
1%
#196000
0!
0%
#196500
0/
b11000101 "
b11000101 (
b11000101 B
0$
0)
b0 H
b11000100 0
b11000100 E
b1 I
1!
1%
#197000
0!
0%
#197500
1/
01
1F
1$
1)
b11000110 "
b11000110 (
b11000110 B
b1 H
b10110001 0
b10110001 E
1!
1%
#198000
0!
0%
#198500
11
0F
b11000110 0
b11000110 E
b11000111 "
b11000111 (
b11000111 B
b10 I
1!
1%
#199000
0!
0%
#199500
b11001000 "
b11001000 (
b11001000 B
b11 I
b10 H
b11000111 0
b11000111 E
1!
1%
#200000
0!
0%
#200500
0/
b11001001 "
b11001001 (
b11001001 B
0$
0)
b11 H
b11001000 0
b11001000 E
b100 I
1!
1%
#201000
0!
0%
#201500
01
1F
b11001010 "
b11001010 (
b11001010 B
b100 H
b10111000 0
b10111000 E
1!
1%
#202000
0!
0%
#202500
1/
b11001011 "
b11001011 (
b11001011 B
1$
1)
1!
1%
#203000
0!
0%
#203500
11
0F
b11001100 "
b11001100 (
b11001100 B
b11001011 0
b11001011 E
b101 I
1!
1%
#204000
0!
0%
#204500
b11001101 "
b11001101 (
b11001101 B
b101 H
b11001100 0
b11001100 E
b110 I
1!
1%
#205000
0!
0%
#205500
b11001110 "
b11001110 (
b11001110 B
b111 I
b110 H
b11001101 0
b11001101 E
1!
1%
#206000
0!
0%
#206500
b11001111 "
b11001111 (
b11001111 B
b111 H
b11001110 0
b11001110 E
b0 I
1!
1%
#207000
0!
0%
#207500
0/
0$
0)
b11010000 "
b11010000 (
b11010000 B
b1 I
b0 H
b11001111 0
b11001111 E
1!
1%
#208000
0!
0%
#208500
1/
01
1F
b11010001 "
b11010001 (
b11010001 B
1$
1)
b1 H
b11000110 0
b11000110 E
1!
1%
#209000
0!
0%
#209500
11
0F
b11010010 "
b11010010 (
b11010010 B
b11010001 0
b11010001 E
b10 I
1!
1%
#210000
0!
0%
#210500
0/
b11010011 "
b11010011 (
b11010011 B
0$
0)
b10 H
b11010010 0
b11010010 E
b11 I
1!
1%
#211000
0!
0%
#211500
01
1F
b11010100 "
b11010100 (
b11010100 B
b11 H
b11001000 0
b11001000 E
1!
1%
#212000
0!
0%
#212500
b11010101 "
b11010101 (
b11010101 B
1!
1%
#213000
0!
0%
#213500
b11010110 "
b11010110 (
b11010110 B
1!
1%
#214000
0!
0%
#214500
1/
b11010111 "
b11010111 (
b11010111 B
1$
1)
1!
1%
#215000
0!
0%
#215500
11
0F
b11011000 "
b11011000 (
b11011000 B
b11010111 0
b11010111 E
b100 I
1!
1%
#216000
0!
0%
#216500
0/
b11011001 "
b11011001 (
b11011001 B
0$
0)
b100 H
b11011000 0
b11011000 E
b101 I
1!
1%
#217000
0!
0%
#217500
01
1F
b11011010 "
b11011010 (
b11011010 B
b101 H
b11001100 0
b11001100 E
1!
1%
#218000
0!
0%
#218500
1/
b11011011 "
b11011011 (
b11011011 B
1$
1)
1!
1%
#219000
0!
0%
#219500
0/
11
0F
0$
0)
b11011100 "
b11011100 (
b11011100 B
b11011011 0
b11011011 E
b110 I
1!
1%
#220000
0!
0%
#220500
01
1F
b11011101 "
b11011101 (
b11011101 B
b110 H
b11001101 0
b11001101 E
1!
1%
#221000
0!
0%
#221500
1/
1$
1)
b11011110 "
b11011110 (
b11011110 B
1!
1%
#222000
0!
0%
#222500
0/
11
0F
b11011110 0
b11011110 E
b11011111 "
b11011111 (
b11011111 B
0$
0)
b111 I
1!
1%
#223000
0!
0%
#223500
01
1F
b11100000 "
b11100000 (
b11100000 B
b111 H
b11001110 0
b11001110 E
1!
1%
#224000
0!
0%
#224500
1/
b11100001 "
b11100001 (
b11100001 B
1$
1)
1!
1%
#225000
0!
0%
#225500
0/
11
0F
0$
0)
b11100010 "
b11100010 (
b11100010 B
b11100001 0
b11100001 E
b0 I
1!
1%
#226000
0!
0%
#226500
01
1F
b11100011 "
b11100011 (
b11100011 B
b0 H
b11001111 0
b11001111 E
1!
1%
#227000
0!
0%
